<?xml version='1.0' encoding='UTF-8' standalone='no'?>
<!-- Created with Fritzing (http://www.fritzing.org/) -->
<svg xmlns:svg='http://www.w3.org/2000/svg' xmlns='http://www.w3.org/2000/svg' version='1.2' baseProfile='tiny' x='0in' y='0in' width='6.75156in' height='3.99475in' viewBox='0 0 486.112 287.622' >
<g partID='854492930'><g transform='translate(269.938,67.5605)' ><g transform='matrix(0,-1,1,0,0,0)'  ><g id="schematic">
<line y2="14.677" stroke="#000000" stroke-width="0.7" x1="7.787" y1="14.677" stroke-linecap="round" fill="none" x2="4.188"/>
<line y2="14.677" stroke="#000000" stroke-width="0.7" x1="4.188" y1="14.677" stroke-linecap="round" fill="none" x2="0.587"/>
<polygon points="4.188,14.677,0.587,7.477,4.188,7.477,7.787,7.477" stroke="#000000" stroke-width="0.7" stroke-linecap="round" fill="#FFFFFF"/>
<line y2="14.677" stroke="#000000" stroke-width="0.45" x1="4.188" y1="7.477" stroke-linecap="round" fill="none" x2="4.188"/>
<line y2="14.677" stroke="#787878" stroke-width="0.7" x1="4.188" y1="21.876" id="connector0pin" stroke-linecap="round" fill="none" x2="4.188"/>
<g y="21.876" x="4.188" width="0.001" height="0.001" id="connector0terminal" fill="none"/>
<g transform="matrix(1, 0, 0, 1, 3.429, 6.4262)">
<g>
<g transform="rotate(270)">
<g>
<g transform="matrix(1, 0, 0, 1, -12.6912, -0.1726)">
<text font-size="2" font-family="'Droid Sans'" fill="#787878">2</text>
</g>
</g>
</g>
</g>
</g>
<line y2="7.477" stroke="#787878" stroke-width="0.7" x1="4.188" y1="0.276" id="connector1pin" stroke-linecap="round" fill="none" x2="4.188"/>
<g y="0.276" x="4.188" width="0.001" height="0.001" id="connector1terminal" fill="none"/>
<g transform="matrix(1, 0, 0, 1, 3.429, 1.3462)">
<g>
<g transform="rotate(270)">
<g>
<g transform="matrix(1, 0, 0, 1, -3.3708, -0.1726)">
<text font-size="2" font-family="'Droid Sans'" fill="#787878">1</text>
</g>
</g>
</g>
</g>
</g>
</g>
</g></g></g><g partID='854495380'><g transform='translate(223.407,106.593)' ><g transform='matrix(0,-1,1,0,0,0)'  ><g xmlns="http://www.w3.org/2000/svg" id="schematic">
<line y2="3.6" stroke="#000000" stroke-width="0.7" x1="0.35" stroke-linejoin="round" xmlns="http://www.w3.org/2000/svg" y1="3.6" id="connector0pin" stroke-linecap="round" fill="none" x2="7.346"/>
<g y="3.504" x="-0.252" xmlns="http://www.w3.org/2000/svg" width="0.546" height="0.208" id="connector0terminal" fill="none"/>
<polyline points="14.1,5.557,9.928,3.6,14.1,1.643" stroke="#000000" stroke-width="0.7" stroke-linejoin="round" xmlns="http://www.w3.org/2000/svg" stroke-linecap="round" fill="none"/>
<line y2="3.6" stroke="#000000" stroke-width="0.7" x1="10.11" stroke-linejoin="round" xmlns="http://www.w3.org/2000/svg" y1="3.6" id="line" stroke-linecap="round" fill="none" x2="4.804"/>
<text stroke="none" stroke-width="0" text-anchor="middle" font-size="2.5" y="2.58" x="5.05" xmlns="http://www.w3.org/2000/svg" class="text" font-family="'Droid Sans'" fill="#8c8c8c">1</text>
<line y2="10.8" stroke="#000000" stroke-width="0.7" x1="0.35" stroke-linejoin="round" xmlns="http://www.w3.org/2000/svg" y1="10.8" id="connector1pin" stroke-linecap="round" fill="none" x2="7.346"/>
<g y="10.704" x="-0.252" xmlns="http://www.w3.org/2000/svg" width="0.546" height="0.208" id="connector1terminal" fill="none"/>
<polyline points="14.1,12.757,9.928,10.8,14.1,8.843" stroke="#000000" stroke-width="0.7" stroke-linejoin="round" xmlns="http://www.w3.org/2000/svg" stroke-linecap="round" fill="none"/>
<line y2="10.8" stroke="#000000" stroke-width="0.7" x1="10.11" stroke-linejoin="round" xmlns="http://www.w3.org/2000/svg" y1="10.8" id="line" stroke-linecap="round" fill="none" x2="4.804"/>
<text stroke="none" stroke-width="0" text-anchor="middle" font-size="2.5" y="9.78" x="5.05" xmlns="http://www.w3.org/2000/svg" class="text" font-family="'Droid Sans'" fill="#8c8c8c">2</text>
<line y2="18" stroke="#000000" stroke-width="0.7" x1="0.35" stroke-linejoin="round" xmlns="http://www.w3.org/2000/svg" y1="18" id="connector2pin" stroke-linecap="round" fill="none" x2="7.346"/>
<g y="17.904" x="-0.252" xmlns="http://www.w3.org/2000/svg" width="0.546" height="0.208" id="connector2terminal" fill="none"/>
<polyline points="14.1,19.957,9.928,18,14.1,16.043" stroke="#000000" stroke-width="0.7" stroke-linejoin="round" xmlns="http://www.w3.org/2000/svg" stroke-linecap="round" fill="none"/>
<line y2="18" stroke="#000000" stroke-width="0.7" x1="10.11" stroke-linejoin="round" xmlns="http://www.w3.org/2000/svg" y1="18" id="line" stroke-linecap="round" fill="none" x2="4.804"/>
<text stroke="none" stroke-width="0" text-anchor="middle" font-size="2.5" y="16.98" x="5.05" xmlns="http://www.w3.org/2000/svg" class="text" font-family="'Droid Sans'" fill="#8c8c8c">3</text>
<line y2="25.2" stroke="#000000" stroke-width="0.7" x1="0.35" stroke-linejoin="round" xmlns="http://www.w3.org/2000/svg" y1="25.2" id="connector3pin" stroke-linecap="round" fill="none" x2="7.346"/>
<g y="25.104" x="-0.252" xmlns="http://www.w3.org/2000/svg" width="0.546" height="0.208" id="connector3terminal" fill="none"/>
<polyline points="14.1,27.157,9.928,25.2,14.1,23.243" stroke="#000000" stroke-width="0.7" stroke-linejoin="round" xmlns="http://www.w3.org/2000/svg" stroke-linecap="round" fill="none"/>
<line y2="25.2" stroke="#000000" stroke-width="0.7" x1="10.11" stroke-linejoin="round" xmlns="http://www.w3.org/2000/svg" y1="25.2" id="line" stroke-linecap="round" fill="none" x2="4.804"/>
<text stroke="none" stroke-width="0" text-anchor="middle" font-size="2.5" y="24.18" x="5.05" xmlns="http://www.w3.org/2000/svg" class="text" font-family="'Droid Sans'" fill="#8c8c8c">4</text>
<line y2="32.4" stroke="#000000" stroke-width="0.7" x1="0.35" stroke-linejoin="round" xmlns="http://www.w3.org/2000/svg" y1="32.4" id="connector4pin" stroke-linecap="round" fill="none" x2="7.346"/>
<g y="32.304" x="-0.252" xmlns="http://www.w3.org/2000/svg" width="0.546" height="0.208" id="connector4terminal" fill="none"/>
<polyline points="14.1,34.357,9.928,32.4,14.1,30.443" stroke="#000000" stroke-width="0.7" stroke-linejoin="round" xmlns="http://www.w3.org/2000/svg" stroke-linecap="round" fill="none"/>
<line y2="32.4" stroke="#000000" stroke-width="0.7" x1="10.11" stroke-linejoin="round" xmlns="http://www.w3.org/2000/svg" y1="32.4" id="line" stroke-linecap="round" fill="none" x2="4.804"/>
<text stroke="none" stroke-width="0" text-anchor="middle" font-size="2.5" y="31.38" x="5.05" xmlns="http://www.w3.org/2000/svg" class="text" font-family="'Droid Sans'" fill="#8c8c8c">5</text>
<line y2="39.6" stroke="#000000" stroke-width="0.7" x1="0.35" stroke-linejoin="round" xmlns="http://www.w3.org/2000/svg" y1="39.6" id="connector5pin" stroke-linecap="round" fill="none" x2="7.346"/>
<g y="39.504" x="-0.252" xmlns="http://www.w3.org/2000/svg" width="0.546" height="0.208" id="connector5terminal" fill="none"/>
<polyline points="14.1,41.557,9.928,39.6,14.1,37.643" stroke="#000000" stroke-width="0.7" stroke-linejoin="round" xmlns="http://www.w3.org/2000/svg" stroke-linecap="round" fill="none"/>
<line y2="39.6" stroke="#000000" stroke-width="0.7" x1="10.11" stroke-linejoin="round" xmlns="http://www.w3.org/2000/svg" y1="39.6" id="line" stroke-linecap="round" fill="none" x2="4.804"/>
<text stroke="none" stroke-width="0" text-anchor="middle" font-size="2.5" y="38.58" x="5.05" xmlns="http://www.w3.org/2000/svg" class="text" font-family="'Droid Sans'" fill="#8c8c8c">6</text>
</g>
</g></g></g><g partID='854495020'><g transform='translate(338.607,178.593)' ><g transform='matrix(0,-1,1,0,0,0)'  ><g xmlns="http://www.w3.org/2000/svg" id="schematic">
<line y2="3.6" stroke="#000000" stroke-width="0.7" x1="0.35" stroke-linejoin="round" xmlns="http://www.w3.org/2000/svg" y1="3.6" id="connector0pin" stroke-linecap="round" fill="none" x2="7.346"/>
<g y="3.504" x="-0.252" xmlns="http://www.w3.org/2000/svg" width="0.546" height="0.208" id="connector0terminal" fill="none"/>
<polyline points="14.1,5.557,9.928,3.6,14.1,1.643" stroke="#000000" stroke-width="0.7" stroke-linejoin="round" xmlns="http://www.w3.org/2000/svg" stroke-linecap="round" fill="none"/>
<line y2="3.6" stroke="#000000" stroke-width="0.7" x1="10.11" stroke-linejoin="round" xmlns="http://www.w3.org/2000/svg" y1="3.6" id="line" stroke-linecap="round" fill="none" x2="4.804"/>
<text stroke="none" stroke-width="0" text-anchor="middle" font-size="2.5" y="2.58" x="5.05" xmlns="http://www.w3.org/2000/svg" class="text" font-family="'Droid Sans'" fill="#8c8c8c">1</text>
<line y2="10.8" stroke="#000000" stroke-width="0.7" x1="0.35" stroke-linejoin="round" xmlns="http://www.w3.org/2000/svg" y1="10.8" id="connector1pin" stroke-linecap="round" fill="none" x2="7.346"/>
<g y="10.704" x="-0.252" xmlns="http://www.w3.org/2000/svg" width="0.546" height="0.208" id="connector1terminal" fill="none"/>
<polyline points="14.1,12.757,9.928,10.8,14.1,8.843" stroke="#000000" stroke-width="0.7" stroke-linejoin="round" xmlns="http://www.w3.org/2000/svg" stroke-linecap="round" fill="none"/>
<line y2="10.8" stroke="#000000" stroke-width="0.7" x1="10.11" stroke-linejoin="round" xmlns="http://www.w3.org/2000/svg" y1="10.8" id="line" stroke-linecap="round" fill="none" x2="4.804"/>
<text stroke="none" stroke-width="0" text-anchor="middle" font-size="2.5" y="9.78" x="5.05" xmlns="http://www.w3.org/2000/svg" class="text" font-family="'Droid Sans'" fill="#8c8c8c">2</text>
</g>
</g></g></g><g partID='854493590'><g transform='translate(72.2069,92.1931)' ><g transform='matrix(0,-1,1,0,0,0)'  ><g xmlns="http://www.w3.org/2000/svg" id="schematic">
<line y2="3.6" stroke="#000000" stroke-width="0.7" x1="0.35" stroke-linejoin="round" xmlns="http://www.w3.org/2000/svg" y1="3.6" id="connector0pin" stroke-linecap="round" fill="none" x2="7.346"/>
<g y="3.504" x="-0.252" xmlns="http://www.w3.org/2000/svg" width="0.546" height="0.208" id="connector0terminal" fill="none"/>
<polyline points="14.1,5.557,9.928,3.6,14.1,1.643" stroke="#000000" stroke-width="0.7" stroke-linejoin="round" xmlns="http://www.w3.org/2000/svg" stroke-linecap="round" fill="none"/>
<line y2="3.6" stroke="#000000" stroke-width="0.7" x1="10.11" stroke-linejoin="round" xmlns="http://www.w3.org/2000/svg" y1="3.6" id="line" stroke-linecap="round" fill="none" x2="4.804"/>
<text stroke="none" stroke-width="0" text-anchor="middle" font-size="2.5" y="2.58" x="5.05" xmlns="http://www.w3.org/2000/svg" class="text" font-family="'Droid Sans'" fill="#8c8c8c">1</text>
<line y2="10.8" stroke="#000000" stroke-width="0.7" x1="0.35" stroke-linejoin="round" xmlns="http://www.w3.org/2000/svg" y1="10.8" id="connector1pin" stroke-linecap="round" fill="none" x2="7.346"/>
<g y="10.704" x="-0.252" xmlns="http://www.w3.org/2000/svg" width="0.546" height="0.208" id="connector1terminal" fill="none"/>
<polyline points="14.1,12.757,9.928,10.8,14.1,8.843" stroke="#000000" stroke-width="0.7" stroke-linejoin="round" xmlns="http://www.w3.org/2000/svg" stroke-linecap="round" fill="none"/>
<line y2="10.8" stroke="#000000" stroke-width="0.7" x1="10.11" stroke-linejoin="round" xmlns="http://www.w3.org/2000/svg" y1="10.8" id="line" stroke-linecap="round" fill="none" x2="4.804"/>
<text stroke="none" stroke-width="0" text-anchor="middle" font-size="2.5" y="9.78" x="5.05" xmlns="http://www.w3.org/2000/svg" class="text" font-family="'Droid Sans'" fill="#8c8c8c">2</text>
<line y2="18" stroke="#000000" stroke-width="0.7" x1="0.35" stroke-linejoin="round" xmlns="http://www.w3.org/2000/svg" y1="18" id="connector2pin" stroke-linecap="round" fill="none" x2="7.346"/>
<g y="17.904" x="-0.252" xmlns="http://www.w3.org/2000/svg" width="0.546" height="0.208" id="connector2terminal" fill="none"/>
<polyline points="14.1,19.957,9.928,18,14.1,16.043" stroke="#000000" stroke-width="0.7" stroke-linejoin="round" xmlns="http://www.w3.org/2000/svg" stroke-linecap="round" fill="none"/>
<line y2="18" stroke="#000000" stroke-width="0.7" x1="10.11" stroke-linejoin="round" xmlns="http://www.w3.org/2000/svg" y1="18" id="line" stroke-linecap="round" fill="none" x2="4.804"/>
<text stroke="none" stroke-width="0" text-anchor="middle" font-size="2.5" y="16.98" x="5.05" xmlns="http://www.w3.org/2000/svg" class="text" font-family="'Droid Sans'" fill="#8c8c8c">3</text>
</g>
</g></g></g><g partID='854493550'><g transform='translate(245.015,63.3721)' ><g transform='matrix(0,-1,1,0,0,0)'  ><g xmlns="http://www.w3.org/2000/svg" id="schematic">
<line y2="3.6" stroke="#787878" stroke-width="0.699999" x1="0.349999" stroke-linejoin="round" xmlns="http://www.w3.org/2000/svg" y1="3.6" id="connector0pin" stroke-linecap="round" fill="none" x2="13.7"/>
<g y="3.25" x="0" xmlns="http://www.w3.org/2000/svg" width="0" height="0.699999" id="connector0terminal"/>
<circle cy="3.6" stroke="#787878" stroke-width="0.699999" xmlns="http://www.w3.org/2000/svg" cx="17.3" r="2.9" fill="none"/>
<line y2="10.8" stroke="#787878" stroke-width="0.699999" x1="0.349999" stroke-linejoin="round" xmlns="http://www.w3.org/2000/svg" y1="10.8" id="connector1pin" stroke-linecap="round" fill="none" x2="13.7"/>
<g y="10.45" x="0" xmlns="http://www.w3.org/2000/svg" width="0" height="0.699999" id="connector1terminal"/>
<circle cy="10.8" stroke="#787878" stroke-width="0.699999" xmlns="http://www.w3.org/2000/svg" cx="17.3" r="2.9" fill="none"/>
</g>
</g></g></g><g partID='854492910'><g transform='translate(345.815,63.3721)' ><g transform='matrix(0,-1,1,0,0,0)'  ><g xmlns="http://www.w3.org/2000/svg" id="schematic">
<line y2="3.6" stroke="#787878" stroke-width="0.699999" x1="0.349999" stroke-linejoin="round" xmlns="http://www.w3.org/2000/svg" y1="3.6" id="connector0pin" stroke-linecap="round" fill="none" x2="13.7"/>
<g y="3.25" x="0" xmlns="http://www.w3.org/2000/svg" width="0" height="0.699999" id="connector0terminal"/>
<circle cy="3.6" stroke="#787878" stroke-width="0.699999" xmlns="http://www.w3.org/2000/svg" cx="17.3" r="2.9" fill="none"/>
<line y2="10.8" stroke="#787878" stroke-width="0.699999" x1="0.349999" stroke-linejoin="round" xmlns="http://www.w3.org/2000/svg" y1="10.8" id="connector1pin" stroke-linecap="round" fill="none" x2="13.7"/>
<g y="10.45" x="0" xmlns="http://www.w3.org/2000/svg" width="0" height="0.699999" id="connector1terminal"/>
<circle cy="10.8" stroke="#787878" stroke-width="0.699999" xmlns="http://www.w3.org/2000/svg" cx="17.3" r="2.9" fill="none"/>
</g>
</g></g></g><g partID='854484880'><g transform='translate(441.055,52.5757)' ><g transform='matrix(-1,0,0,-1,0,0)'  ><g xmlns="http://www.w3.org/2000/svg" id="schematic">
<rect stroke="none" stroke-width="0" y="0" x="73.6294" xmlns="http://www.w3.org/2000/svg" width="3.6" height="7.2" id="connector0pin" fill="none"/>
<g stroke="none" stroke-width="0" y="3.6" x="77.2366" xmlns="http://www.w3.org/2000/svg" width="0.0072" height="0.0072" id="connector0terminal" fill="none"/>
<polygon points="77.1163,3.6,73.6366,0.12,0.12,0.12,0.12,7.08,73.6366,7.08" stroke="#000000" stroke-width="0.24" xmlns="http://www.w3.org/2000/svg" fill="white"/>
</g>
</g></g></g><g partID='854519730'><g transform='translate(405.542,174.976)' ><g transform='matrix(-1,0,0,-1,0,0)'  ><g xmlns="http://www.w3.org/2000/svg" id="schematic">
<rect stroke="none" stroke-width="0" y="0" x="45.3166" xmlns="http://www.w3.org/2000/svg" width="3.6" height="7.2" id="connector0pin" fill="none"/>
<g stroke="none" stroke-width="0" y="3.6" x="48.9238" xmlns="http://www.w3.org/2000/svg" width="0.0072" height="0.0072" id="connector0terminal" fill="none"/>
<polygon points="48.8038,3.6,45.3238,0.12,0.12,0.12,0.12,7.08,45.3238,7.08" stroke="#000000" stroke-width="0.24" xmlns="http://www.w3.org/2000/svg" fill="white"/>
</g>
</g></g></g><g partID='854484940'><g transform='translate(198.3,45.3685)' ><g transform='matrix(1,0,0,1,0,0)'  ><g xmlns="http://www.w3.org/2000/svg" id="schematic">
<rect stroke="none" stroke-width="0" y="0" x="39.504" xmlns="http://www.w3.org/2000/svg" width="3.6" height="7.2" id="connector0pin" fill="none"/>
<g stroke="none" stroke-width="0" y="3.6" x="43.1112" xmlns="http://www.w3.org/2000/svg" width="0.0072" height="0.0072" id="connector0terminal" fill="none"/>
<polygon points="42.9913,3.6,39.5112,0.12,0.12,0.12,0.12,7.08,39.5112,7.08" stroke="#000000" stroke-width="0.24" xmlns="http://www.w3.org/2000/svg" fill="white"/>
</g>
</g></g></g><g partID='854519770'><g transform='translate(8e-5,81.3685)' ><g transform='matrix(1,0,0,1,0,0)'  ><g xmlns="http://www.w3.org/2000/svg" id="schematic">
<rect stroke="none" stroke-width="0" y="0" x="65.004" xmlns="http://www.w3.org/2000/svg" width="3.6" height="7.2" id="connector0pin" fill="none"/>
<g stroke="none" stroke-width="0" y="3.6" x="68.6112" xmlns="http://www.w3.org/2000/svg" width="0.0072" height="0.0072" id="connector0terminal" fill="none"/>
<polygon points="68.4912,3.6,65.0112,0.12,0.12,0.12,0.12,7.08,65.0112,7.08" stroke="#000000" stroke-width="0.24" xmlns="http://www.w3.org/2000/svg" fill="white"/>
</g>
</g></g></g><g partID='854496360'><g transform='translate(352.511,178.222)' ><g transform='matrix(0,1,-1,0,0,0)'  ><g xmlns="http://www.w3.org/2000/svg" id="schematic">
<line y2="0.216" stroke="#000000" stroke-width="0.432002" x1="7.55002" xmlns="http://www.w3.org/2000/svg" class="other" y1="3.096" stroke-linecap="round" x2="8.63003"/>
<line y2="5.976" stroke="#000000" stroke-width="0.432002" x1="8.63003" xmlns="http://www.w3.org/2000/svg" class="other" y1="0.216" stroke-linecap="round" x2="10.43"/>
<line y2="0.216" stroke="#000000" stroke-width="0.432002" x1="10.43" xmlns="http://www.w3.org/2000/svg" class="other" y1="5.976" stroke-linecap="round" x2="12.23"/>
<line y2="5.976" stroke="#000000" stroke-width="0.432002" x1="12.23" xmlns="http://www.w3.org/2000/svg" class="other" y1="0.216" stroke-linecap="round" x2="14.03"/>
<line y2="0.216" stroke="#000000" stroke-width="0.432002" x1="14.03" xmlns="http://www.w3.org/2000/svg" class="other" y1="5.976" stroke-linecap="round" x2="15.8301"/>
<line y2="5.976" stroke="#000000" stroke-width="0.432002" x1="15.8301" xmlns="http://www.w3.org/2000/svg" class="other" y1="0.216" stroke-linecap="round" x2="17.6301"/>
<line y2="0.216" stroke="#000000" stroke-width="0.432002" x1="17.6301" xmlns="http://www.w3.org/2000/svg" class="other" y1="5.976" stroke-linecap="round" x2="19.4301"/>
<line y2="5.976" stroke="#000000" stroke-width="0.432002" x1="19.4301" xmlns="http://www.w3.org/2000/svg" class="other" y1="0.216" stroke-linecap="round" x2="21.2301"/>
<line y2="3.096" stroke="#000000" stroke-width="0.432002" x1="21.2301" xmlns="http://www.w3.org/2000/svg" class="other" y1="5.976" stroke-linecap="round" x2="21.9501"/>
<line y2="3.096" stroke="#787878" stroke-width="0.700001" x1="29.1502" xmlns="http://www.w3.org/2000/svg" class="pin" y1="3.096" id="connector1pin" stroke-linecap="round" connectorname="2" x2="21.9501"/>
<g stroke="none" stroke-width="0" y="3.096" x="29.1502" xmlns="http://www.w3.org/2000/svg" class="terminal" width="0.000283466" height="0.000283465" id="connector1terminal" fill="none"/>
<text stroke="none" stroke-width="0" text-anchor="middle" font-size="2.50001" y="2.046" x="25.5501" xmlns="http://www.w3.org/2000/svg" class="text" font-family="'Droid Sans'" fill="#8c8c8c">2</text>
<line y2="3.096" stroke="#787878" stroke-width="0.700001" x1="0.350001" xmlns="http://www.w3.org/2000/svg" class="pin" y1="3.096" id="connector0pin" stroke-linecap="round" connectorname="1" x2="7.55002"/>
<g stroke="none" stroke-width="0" y="3.096" x="0.350001" xmlns="http://www.w3.org/2000/svg" class="terminal" width="0.000283466" height="0.000283465" id="connector0terminal" fill="none"/>
<text stroke="none" stroke-width="0" text-anchor="middle" font-size="2.50001" y="2.046" x="3.95001" xmlns="http://www.w3.org/2000/svg" class="text" font-family="'Droid Sans'" fill="#8c8c8c">1</text>
</g>
</g></g></g><g partID='854499720'><g transform='translate(438.911,106.222)' ><g transform='matrix(0,1,-1,0,0,0)'  ><g xmlns="http://www.w3.org/2000/svg" id="schematic">
<line y2="0.216" stroke="#000000" stroke-width="0.432002" x1="7.55002" xmlns="http://www.w3.org/2000/svg" class="other" y1="3.096" stroke-linecap="round" x2="8.63003"/>
<line y2="5.976" stroke="#000000" stroke-width="0.432002" x1="8.63003" xmlns="http://www.w3.org/2000/svg" class="other" y1="0.216" stroke-linecap="round" x2="10.43"/>
<line y2="0.216" stroke="#000000" stroke-width="0.432002" x1="10.43" xmlns="http://www.w3.org/2000/svg" class="other" y1="5.976" stroke-linecap="round" x2="12.23"/>
<line y2="5.976" stroke="#000000" stroke-width="0.432002" x1="12.23" xmlns="http://www.w3.org/2000/svg" class="other" y1="0.216" stroke-linecap="round" x2="14.03"/>
<line y2="0.216" stroke="#000000" stroke-width="0.432002" x1="14.03" xmlns="http://www.w3.org/2000/svg" class="other" y1="5.976" stroke-linecap="round" x2="15.8301"/>
<line y2="5.976" stroke="#000000" stroke-width="0.432002" x1="15.8301" xmlns="http://www.w3.org/2000/svg" class="other" y1="0.216" stroke-linecap="round" x2="17.6301"/>
<line y2="0.216" stroke="#000000" stroke-width="0.432002" x1="17.6301" xmlns="http://www.w3.org/2000/svg" class="other" y1="5.976" stroke-linecap="round" x2="19.4301"/>
<line y2="5.976" stroke="#000000" stroke-width="0.432002" x1="19.4301" xmlns="http://www.w3.org/2000/svg" class="other" y1="0.216" stroke-linecap="round" x2="21.2301"/>
<line y2="3.096" stroke="#000000" stroke-width="0.432002" x1="21.2301" xmlns="http://www.w3.org/2000/svg" class="other" y1="5.976" stroke-linecap="round" x2="21.9501"/>
<line y2="3.096" stroke="#787878" stroke-width="0.700001" x1="29.1502" xmlns="http://www.w3.org/2000/svg" class="pin" y1="3.096" id="connector1pin" stroke-linecap="round" connectorname="2" x2="21.9501"/>
<g stroke="none" stroke-width="0" y="3.096" x="29.1502" xmlns="http://www.w3.org/2000/svg" class="terminal" width="0.000283466" height="0.000283465" id="connector1terminal" fill="none"/>
<text stroke="none" stroke-width="0" text-anchor="middle" font-size="2.50001" y="2.046" x="25.5501" xmlns="http://www.w3.org/2000/svg" class="text" font-family="'Droid Sans'" fill="#8c8c8c">2</text>
<line y2="3.096" stroke="#787878" stroke-width="0.700001" x1="0.350001" xmlns="http://www.w3.org/2000/svg" class="pin" y1="3.096" id="connector0pin" stroke-linecap="round" connectorname="1" x2="7.55002"/>
<g stroke="none" stroke-width="0" y="3.096" x="0.350001" xmlns="http://www.w3.org/2000/svg" class="terminal" width="0.000283466" height="0.000283465" id="connector0terminal" fill="none"/>
<text stroke="none" stroke-width="0" text-anchor="middle" font-size="2.50001" y="2.046" x="3.95001" xmlns="http://www.w3.org/2000/svg" class="text" font-family="'Droid Sans'" fill="#8c8c8c">1</text>
</g>
</g></g></g><g partID='854499700'><g transform='translate(467.711,106.222)' ><g transform='matrix(0,1,-1,0,0,0)'  ><g xmlns="http://www.w3.org/2000/svg" id="schematic">
<line y2="0.216" stroke="#000000" stroke-width="0.432002" x1="7.55002" xmlns="http://www.w3.org/2000/svg" class="other" y1="3.096" stroke-linecap="round" x2="8.63003"/>
<line y2="5.976" stroke="#000000" stroke-width="0.432002" x1="8.63003" xmlns="http://www.w3.org/2000/svg" class="other" y1="0.216" stroke-linecap="round" x2="10.43"/>
<line y2="0.216" stroke="#000000" stroke-width="0.432002" x1="10.43" xmlns="http://www.w3.org/2000/svg" class="other" y1="5.976" stroke-linecap="round" x2="12.23"/>
<line y2="5.976" stroke="#000000" stroke-width="0.432002" x1="12.23" xmlns="http://www.w3.org/2000/svg" class="other" y1="0.216" stroke-linecap="round" x2="14.03"/>
<line y2="0.216" stroke="#000000" stroke-width="0.432002" x1="14.03" xmlns="http://www.w3.org/2000/svg" class="other" y1="5.976" stroke-linecap="round" x2="15.8301"/>
<line y2="5.976" stroke="#000000" stroke-width="0.432002" x1="15.8301" xmlns="http://www.w3.org/2000/svg" class="other" y1="0.216" stroke-linecap="round" x2="17.6301"/>
<line y2="0.216" stroke="#000000" stroke-width="0.432002" x1="17.6301" xmlns="http://www.w3.org/2000/svg" class="other" y1="5.976" stroke-linecap="round" x2="19.4301"/>
<line y2="5.976" stroke="#000000" stroke-width="0.432002" x1="19.4301" xmlns="http://www.w3.org/2000/svg" class="other" y1="0.216" stroke-linecap="round" x2="21.2301"/>
<line y2="3.096" stroke="#000000" stroke-width="0.432002" x1="21.2301" xmlns="http://www.w3.org/2000/svg" class="other" y1="5.976" stroke-linecap="round" x2="21.9501"/>
<line y2="3.096" stroke="#787878" stroke-width="0.700001" x1="29.1502" xmlns="http://www.w3.org/2000/svg" class="pin" y1="3.096" id="connector1pin" stroke-linecap="round" connectorname="2" x2="21.9501"/>
<g stroke="none" stroke-width="0" y="3.096" x="29.1502" xmlns="http://www.w3.org/2000/svg" class="terminal" width="0.000283466" height="0.000283465" id="connector1terminal" fill="none"/>
<text stroke="none" stroke-width="0" text-anchor="middle" font-size="2.50001" y="2.046" x="25.5501" xmlns="http://www.w3.org/2000/svg" class="text" font-family="'Droid Sans'" fill="#8c8c8c">2</text>
<line y2="3.096" stroke="#787878" stroke-width="0.700001" x1="0.350001" xmlns="http://www.w3.org/2000/svg" class="pin" y1="3.096" id="connector0pin" stroke-linecap="round" connectorname="1" x2="7.55002"/>
<g stroke="none" stroke-width="0" y="3.096" x="0.350001" xmlns="http://www.w3.org/2000/svg" class="terminal" width="0.000283466" height="0.000283465" id="connector0terminal" fill="none"/>
<text stroke="none" stroke-width="0" text-anchor="middle" font-size="2.50001" y="2.046" x="3.95001" xmlns="http://www.w3.org/2000/svg" class="text" font-family="'Droid Sans'" fill="#8c8c8c">1</text>
</g>
</g></g></g><g partID='854397510'><g transform='translate(313.065,110.676)' ><g transform='matrix(1,0,0,1,0,0)'  ><g xmlns="http://www.w3.org/2000/svg" id="schematic">
<line y2="0.216" stroke="#000000" stroke-width="0.432002" x1="7.55002" xmlns="http://www.w3.org/2000/svg" class="other" y1="3.096" stroke-linecap="round" x2="8.63003"/>
<line y2="5.976" stroke="#000000" stroke-width="0.432002" x1="8.63003" xmlns="http://www.w3.org/2000/svg" class="other" y1="0.216" stroke-linecap="round" x2="10.43"/>
<line y2="0.216" stroke="#000000" stroke-width="0.432002" x1="10.43" xmlns="http://www.w3.org/2000/svg" class="other" y1="5.976" stroke-linecap="round" x2="12.23"/>
<line y2="5.976" stroke="#000000" stroke-width="0.432002" x1="12.23" xmlns="http://www.w3.org/2000/svg" class="other" y1="0.216" stroke-linecap="round" x2="14.03"/>
<line y2="0.216" stroke="#000000" stroke-width="0.432002" x1="14.03" xmlns="http://www.w3.org/2000/svg" class="other" y1="5.976" stroke-linecap="round" x2="15.8301"/>
<line y2="5.976" stroke="#000000" stroke-width="0.432002" x1="15.8301" xmlns="http://www.w3.org/2000/svg" class="other" y1="0.216" stroke-linecap="round" x2="17.6301"/>
<line y2="0.216" stroke="#000000" stroke-width="0.432002" x1="17.6301" xmlns="http://www.w3.org/2000/svg" class="other" y1="5.976" stroke-linecap="round" x2="19.4301"/>
<line y2="5.976" stroke="#000000" stroke-width="0.432002" x1="19.4301" xmlns="http://www.w3.org/2000/svg" class="other" y1="0.216" stroke-linecap="round" x2="21.2301"/>
<line y2="3.096" stroke="#000000" stroke-width="0.432002" x1="21.2301" xmlns="http://www.w3.org/2000/svg" class="other" y1="5.976" stroke-linecap="round" x2="21.9501"/>
<line y2="3.096" stroke="#787878" stroke-width="0.700001" x1="29.1502" xmlns="http://www.w3.org/2000/svg" class="pin" y1="3.096" id="connector1pin" stroke-linecap="round" connectorname="2" x2="21.9501"/>
<g stroke="none" stroke-width="0" y="3.096" x="29.1502" xmlns="http://www.w3.org/2000/svg" class="terminal" width="0.000283466" height="0.000283465" id="connector1terminal" fill="none"/>
<text stroke="none" stroke-width="0" text-anchor="middle" font-size="2.50001" y="2.046" x="25.5501" xmlns="http://www.w3.org/2000/svg" class="text" font-family="'Droid Sans'" fill="#8c8c8c">2</text>
<line y2="3.096" stroke="#787878" stroke-width="0.700001" x1="0.350001" xmlns="http://www.w3.org/2000/svg" class="pin" y1="3.096" id="connector0pin" stroke-linecap="round" connectorname="1" x2="7.55002"/>
<g stroke="none" stroke-width="0" y="3.096" x="0.350001" xmlns="http://www.w3.org/2000/svg" class="terminal" width="0.000283466" height="0.000283465" id="connector0terminal" fill="none"/>
<text stroke="none" stroke-width="0" text-anchor="middle" font-size="2.50001" y="2.046" x="3.95001" xmlns="http://www.w3.org/2000/svg" class="text" font-family="'Droid Sans'" fill="#8c8c8c">1</text>
</g>
</g></g></g><g partID='73870'><g transform='translate(421.765,77.4223)' ><g transform='matrix(0,1,-1,0,0,0)'  ><g id="schematic">
<circle cy="20.1501" stroke="#000000" stroke-width="1.152" class="other" cx="21.9499" r="0.359999" fill="none"/>
<circle cy="9.35003" stroke="#000000" stroke-width="1.152" class="other" cx="21.9499" r="0.359999" fill="none"/>
<rect stroke="none" stroke-width="0" y="18.3501" x="14.03" class="other" width="2.15999" height="3.60001" stroke-linecap="round" fill="#000000"/>
<rect stroke="none" stroke-width="0" y="7.55002" x="14.03" class="other" width="2.15999" height="3.60001" stroke-linecap="round" fill="#000000"/>
<rect stroke="none" stroke-width="0" y="12.23" x="14.03" class="other" width="2.15999" height="5.04002" stroke-linecap="round" fill="#000000"/>
<line y2="21.9501" stroke="#000000" stroke-width="0.719998" x1="11.582" class="other" y1="7.91002" stroke-linecap="round" x2="11.582"/>
<line y2="9.35003" stroke="#000000" stroke-width="0.431999" x1="21.9499" class="other" y1="9.35003" stroke-linecap="round" x2="16.2619"/>
<line y2="20.1501" stroke="#000000" stroke-width="0.431999" x1="21.9499" class="other" y1="14.75" stroke-linecap="round" x2="21.9499"/>
<line y2="20.1501" stroke="#000000" stroke-width="0.431999" x1="16.1899" class="other" y1="20.1501" stroke-linecap="round" x2="21.9499"/>
<line y2="9.35003" stroke="#000000" stroke-width="0.431999" x1="21.9499" class="other" y1="7.55002" stroke-linecap="round" x2="21.9499"/>
<line y2="9.35003" stroke="#000000" stroke-width="0.431999" x1="21.9499" class="other" y1="9.35003" stroke-linecap="round" x2="29.15"/>
<line y2="20.1501" stroke="#000000" stroke-width="0.431999" x1="29.15" class="other" y1="20.1501" stroke-linecap="round" x2="21.9499"/>
<line y2="21.9501" stroke="#000000" stroke-width="0.431999" x1="21.9499" class="other" y1="20.1501" stroke-linecap="round" x2="21.9499"/>
<line y2="14.75" stroke="#000000" stroke-width="0.431999" x1="11.15" class="other" y1="14.75" stroke-linecap="round" x2="7.54997"/>
<line y2="16.1901" stroke="#000000" stroke-width="0.431999" x1="16.1899" class="other" y1="14.75" stroke-linecap="round" x2="19.7899"/>
<line y2="13.31" stroke="#000000" stroke-width="0.431999" x1="19.7899" class="other" y1="16.1901" stroke-linecap="round" x2="19.7899"/>
<line y2="14.75" stroke="#000000" stroke-width="0.431999" x1="19.7899" class="other" y1="13.31" stroke-linecap="round" x2="16.1899"/>
<line y2="14.75" stroke="#000000" stroke-width="0.431999" x1="19.4299" class="other" y1="14.75" stroke-linecap="round" x2="21.9499"/>
<line y2="14.75" stroke="#000000" stroke-width="0.863998" x1="19.4299" class="other" y1="14.03" stroke-linecap="round" x2="16.9099"/>
<line y2="15.4701" stroke="#000000" stroke-width="0.863998" x1="16.9099" class="other" y1="14.75" stroke-linecap="round" x2="19.4299"/>
<line y2="14.75" stroke="#000000" stroke-width="0.863998" x1="19.4299" class="other" y1="15.4701" stroke-linecap="round" x2="19.4299"/>
<line y2="14.75" stroke="#000000" stroke-width="0.863998" x1="19.4299" class="other" y1="14.75" stroke-linecap="round" x2="18.7099"/>
<line y2="12.59" stroke="#000000" stroke-width="0.431999" x1="29.15" class="other" y1="9.35003" stroke-linecap="round" x2="29.15"/>
<line y2="20.1501" stroke="#000000" stroke-width="0.431999" x1="29.15" class="other" y1="12.59" stroke-linecap="round" x2="29.15"/>
<line y2="16.5501" stroke="#000000" stroke-width="0.431999" x1="29.15" class="other" y1="12.59" stroke-linecap="round" x2="27.3499"/>
<line y2="16.5501" stroke="#000000" stroke-width="0.431999" x1="27.3499" class="other" y1="16.5501" stroke-linecap="round" x2="30.95"/>
<line y2="12.59" stroke="#000000" stroke-width="0.431999" x1="30.95" class="other" y1="16.5501" stroke-linecap="round" x2="29.15"/>
<line y2="12.59" stroke="#000000" stroke-width="0.431999" x1="27.3499" class="other" y1="12.59" stroke-linecap="round" x2="29.15"/>
<line y2="12.59" stroke="#000000" stroke-width="0.431999" x1="29.15" class="other" y1="12.59" stroke-linecap="round" x2="30.95"/>
<line y2="11.87" stroke="#000000" stroke-width="0.431999" x1="30.95" class="other" y1="12.59" stroke-linecap="round" x2="31.67"/>
<line y2="13.31" stroke="#000000" stroke-width="0.431999" x1="27.3499" class="other" y1="12.59" stroke-linecap="round" x2="26.6299"/>
<line y2="7.55002" stroke="#787878" stroke-width="0.699997" x1="21.9499" class="pin" y1="0.350001" id="connector1pin" stroke-linecap="round" connectorname="D" x2="21.9499"/>
<g stroke="none" stroke-width="0" y="0.350001" x="21.9499" class="terminal" width="0.000283464" height="0.000283466" id="connector1terminal" fill="none"/>
<g transform="matrix(1, 0, 0, 1, 20.9, 3.95001)">
<g>
<g transform="rotate(270)">
<g>
<text stroke="none" stroke-width="0" text-anchor="middle" font-size="2.49999" y="0" x="0" class="text" font-family="'Droid Sans'" fill="#8c8c8c">2</text>
</g>
</g>
</g>
</g>
<line y2="14.75" stroke="#787878" stroke-width="0.699997" x1="0.349998" class="pin" y1="14.75" id="connector0pin" stroke-linecap="round" connectorname="G" x2="7.54997"/>
<g stroke="none" stroke-width="0" y="14.75" x="0.349998" class="terminal" width="0.000283464" height="0.000283466" id="connector0terminal" fill="none"/>
<text stroke="none" stroke-width="0" text-anchor="middle" font-size="2.49999" y="13.7001" x="3.94998" class="text" font-family="'Droid Sans'" fill="#8c8c8c">1</text>
<line y2="21.9501" stroke="#787878" stroke-width="0.699997" x1="21.9499" class="pin" y1="29.1502" id="connector2pin" stroke-linecap="round" connectorname="S" x2="21.9499"/>
<g stroke="none" stroke-width="0" y="29.1502" x="21.9499" class="terminal" width="0.000283464" height="0.000283466" id="connector2terminal" fill="none"/>
<g transform="matrix(1, 0, 0, 1, 20.9, 25.5501)">
<g>
<g transform="rotate(270)">
<g>
<text stroke="none" stroke-width="0" text-anchor="middle" font-size="2.49999" y="0" x="0" class="text" font-family="'Droid Sans'" fill="#8c8c8c">3</text>
</g>
</g>
</g>
</g>
</g>
</g></g></g><g partID='57630'><g transform='translate(252.719,186.122)' ><g transform='matrix(0,-1,1,0,0,0)'  ><g xmlns="http://www.w3.org/2000/svg" id="schematic">
<line y2="0.216" stroke="#000000" stroke-width="0.432002" x1="7.55002" xmlns="http://www.w3.org/2000/svg" class="other" y1="3.096" stroke-linecap="round" x2="8.63003"/>
<line y2="5.976" stroke="#000000" stroke-width="0.432002" x1="8.63003" xmlns="http://www.w3.org/2000/svg" class="other" y1="0.216" stroke-linecap="round" x2="10.43"/>
<line y2="0.216" stroke="#000000" stroke-width="0.432002" x1="10.43" xmlns="http://www.w3.org/2000/svg" class="other" y1="5.976" stroke-linecap="round" x2="12.23"/>
<line y2="5.976" stroke="#000000" stroke-width="0.432002" x1="12.23" xmlns="http://www.w3.org/2000/svg" class="other" y1="0.216" stroke-linecap="round" x2="14.03"/>
<line y2="0.216" stroke="#000000" stroke-width="0.432002" x1="14.03" xmlns="http://www.w3.org/2000/svg" class="other" y1="5.976" stroke-linecap="round" x2="15.8301"/>
<line y2="5.976" stroke="#000000" stroke-width="0.432002" x1="15.8301" xmlns="http://www.w3.org/2000/svg" class="other" y1="0.216" stroke-linecap="round" x2="17.6301"/>
<line y2="0.216" stroke="#000000" stroke-width="0.432002" x1="17.6301" xmlns="http://www.w3.org/2000/svg" class="other" y1="5.976" stroke-linecap="round" x2="19.4301"/>
<line y2="5.976" stroke="#000000" stroke-width="0.432002" x1="19.4301" xmlns="http://www.w3.org/2000/svg" class="other" y1="0.216" stroke-linecap="round" x2="21.2301"/>
<line y2="3.096" stroke="#000000" stroke-width="0.432002" x1="21.2301" xmlns="http://www.w3.org/2000/svg" class="other" y1="5.976" stroke-linecap="round" x2="21.9501"/>
<line y2="3.096" stroke="#787878" stroke-width="0.700001" x1="29.1502" xmlns="http://www.w3.org/2000/svg" class="pin" y1="3.096" id="connector1pin" stroke-linecap="round" connectorname="2" x2="21.9501"/>
<g stroke="none" stroke-width="0" y="3.096" x="29.1502" xmlns="http://www.w3.org/2000/svg" class="terminal" width="0.000283466" height="0.000283465" id="connector1terminal" fill="none"/>
<text stroke="none" stroke-width="0" text-anchor="middle" font-size="2.50001" y="2.046" x="25.5501" xmlns="http://www.w3.org/2000/svg" class="text" font-family="'Droid Sans'" fill="#8c8c8c">2</text>
<line y2="3.096" stroke="#787878" stroke-width="0.700001" x1="0.350001" xmlns="http://www.w3.org/2000/svg" class="pin" y1="3.096" id="connector0pin" stroke-linecap="round" connectorname="1" x2="7.55002"/>
<g stroke="none" stroke-width="0" y="3.096" x="0.350001" xmlns="http://www.w3.org/2000/svg" class="terminal" width="0.000283466" height="0.000283465" id="connector0terminal" fill="none"/>
<text stroke="none" stroke-width="0" text-anchor="middle" font-size="2.50001" y="2.046" x="3.95001" xmlns="http://www.w3.org/2000/svg" class="text" font-family="'Droid Sans'" fill="#8c8c8c">1</text>
</g>
</g></g></g><g partID='57600'><g transform='translate(292.165,160.068)' ><g transform='matrix(-1,0,0,-1,0,0)'  ><g xmlns="http://www.w3.org/2000/svg" id="schematic">
<line y2="0.216" stroke="#000000" stroke-width="0.432002" x1="7.55002" xmlns="http://www.w3.org/2000/svg" class="other" y1="3.096" stroke-linecap="round" x2="8.63003"/>
<line y2="5.976" stroke="#000000" stroke-width="0.432002" x1="8.63003" xmlns="http://www.w3.org/2000/svg" class="other" y1="0.216" stroke-linecap="round" x2="10.43"/>
<line y2="0.216" stroke="#000000" stroke-width="0.432002" x1="10.43" xmlns="http://www.w3.org/2000/svg" class="other" y1="5.976" stroke-linecap="round" x2="12.23"/>
<line y2="5.976" stroke="#000000" stroke-width="0.432002" x1="12.23" xmlns="http://www.w3.org/2000/svg" class="other" y1="0.216" stroke-linecap="round" x2="14.03"/>
<line y2="0.216" stroke="#000000" stroke-width="0.432002" x1="14.03" xmlns="http://www.w3.org/2000/svg" class="other" y1="5.976" stroke-linecap="round" x2="15.8301"/>
<line y2="5.976" stroke="#000000" stroke-width="0.432002" x1="15.8301" xmlns="http://www.w3.org/2000/svg" class="other" y1="0.216" stroke-linecap="round" x2="17.6301"/>
<line y2="0.216" stroke="#000000" stroke-width="0.432002" x1="17.6301" xmlns="http://www.w3.org/2000/svg" class="other" y1="5.976" stroke-linecap="round" x2="19.4301"/>
<line y2="5.976" stroke="#000000" stroke-width="0.432002" x1="19.4301" xmlns="http://www.w3.org/2000/svg" class="other" y1="0.216" stroke-linecap="round" x2="21.2301"/>
<line y2="3.096" stroke="#000000" stroke-width="0.432002" x1="21.2301" xmlns="http://www.w3.org/2000/svg" class="other" y1="5.976" stroke-linecap="round" x2="21.9501"/>
<line y2="3.096" stroke="#787878" stroke-width="0.700001" x1="29.1502" xmlns="http://www.w3.org/2000/svg" class="pin" y1="3.096" id="connector1pin" stroke-linecap="round" connectorname="2" x2="21.9501"/>
<g stroke="none" stroke-width="0" y="3.096" x="29.1502" xmlns="http://www.w3.org/2000/svg" class="terminal" width="0.000283466" height="0.000283465" id="connector1terminal" fill="none"/>
<text stroke="none" stroke-width="0" text-anchor="middle" font-size="2.50001" y="2.046" x="25.5501" xmlns="http://www.w3.org/2000/svg" class="text" font-family="'Droid Sans'" fill="#8c8c8c">2</text>
<line y2="3.096" stroke="#787878" stroke-width="0.700001" x1="0.350001" xmlns="http://www.w3.org/2000/svg" class="pin" y1="3.096" id="connector0pin" stroke-linecap="round" connectorname="1" x2="7.55002"/>
<g stroke="none" stroke-width="0" y="3.096" x="0.350001" xmlns="http://www.w3.org/2000/svg" class="terminal" width="0.000283466" height="0.000283465" id="connector0terminal" fill="none"/>
<text stroke="none" stroke-width="0" text-anchor="middle" font-size="2.50001" y="2.046" x="3.95001" xmlns="http://www.w3.org/2000/svg" class="text" font-family="'Droid Sans'" fill="#8c8c8c">1</text>
</g>
</g></g></g><g partID='854493570'><g transform='translate(305.865,70.2217)' ><g id="schematic">
<line y2="10.43" stroke="#000000" stroke-width="0.432" x1="14.75" class="other" y1="7.55002" stroke-linecap="round" x2="8.98999"/>
<line y2="21.9501" stroke="#000000" stroke-width="0.432" x1="12.59" class="other" y1="19.0701" stroke-linecap="round" x2="14.75"/>
<line y2="21.9501" stroke="#000000" stroke-width="0.432" x1="14.75" class="other" y1="21.9501" stroke-linecap="round" x2="11.15"/>
<line y2="19.0701" stroke="#000000" stroke-width="0.432" x1="11.15" class="other" y1="21.9501" stroke-linecap="round" x2="12.59"/>
<line y2="18.7866" stroke="#000000" stroke-width="0.432" x1="11.9153" class="other" y1="20.5327" stroke-linecap="round" x2="8.42306"/>
<line y2="21.5901" stroke="#000000" stroke-width="0.72" x1="11.87" class="other" y1="21.5901" stroke-linecap="round" x2="14.03"/>
<line y2="19.7901" stroke="#000000" stroke-width="0.72" x1="14.03" class="other" y1="21.5901" stroke-linecap="round" x2="12.59"/>
<line y2="21.2301" stroke="#000000" stroke-width="0.72" x1="12.59" class="other" y1="19.7901" stroke-linecap="round" x2="11.87"/>
<line y2="21.2301" stroke="#000000" stroke-width="0.72" x1="11.87" class="other" y1="21.2301" stroke-linecap="round" x2="12.95"/>
<line y2="20.5101" stroke="#000000" stroke-width="0.72" x1="12.95" class="other" y1="21.2301" stroke-linecap="round" x2="12.59"/>
<rect stroke="none" stroke-width="0" y="7.55002" x="6.82999" class="other" width="2.16" height="14.4001" stroke-linecap="round" fill="#000000"/>
<line y2="14.75" stroke="#787878" stroke-width="0.699999" x1="0.349999" class="pin" y1="14.75" id="connector0pin" stroke-linecap="round" connectorname="B" x2="7.54999"/>
<g stroke="none" stroke-width="0" y="14.75" x="0.349999" class="terminal" width="0.000283465" height="0.000283466" id="connector0terminal" fill="none"/>
<text stroke="none" stroke-width="0" text-anchor="middle" font-size="2.5" y="13.7001" x="3.94999" class="text" font-family="'Droid Sans'" fill="#8c8c8c">1</text>
<line y2="21.9501" stroke="#787878" stroke-width="0.699999" x1="14.75" class="pin" y1="29.1502" id="connector2pin" stroke-linecap="round" connectorname="E" x2="14.75"/>
<g stroke="none" stroke-width="0" y="29.1502" x="14.75" class="terminal" width="0.000283465" height="0.000283466" id="connector2terminal" fill="none"/>
<g transform="matrix(1, 0, 0, 1, 13.7, 25.5501)">
<g>
<g transform="rotate(270)">
<g>
<text stroke="none" stroke-width="0" text-anchor="middle" font-size="2.5" y="0" x="0" class="text" font-family="'Droid Sans'" fill="#8c8c8c">2</text>
</g>
</g>
</g>
</g>
<line y2="7.55002" stroke="#787878" stroke-width="0.699999" x1="14.75" class="pin" y1="0.350001" id="connector1pin" stroke-linecap="round" connectorname="C" x2="14.75"/>
<g stroke="none" stroke-width="0" y="0.350001" x="14.75" class="terminal" width="0.000283465" height="0.000283466" id="connector1terminal" fill="none"/>
<g transform="matrix(1, 0, 0, 1, 13.7, 3.95001)">
<g>
<g transform="rotate(270)">
<g>
<text stroke="none" stroke-width="0" text-anchor="middle" font-size="2.5" y="0" x="0" class="text" font-family="'Droid Sans'" fill="#8c8c8c">3</text>
</g>
</g>
</g>
</g>
</g>
</g></g><g partID='84930'><g transform='translate(370.665,106.222)' ><g id="schematic">
<line y2="10.43" stroke="#000000" stroke-width="0.432" x1="14.75" class="other" y1="7.55002" stroke-linecap="round" x2="8.98999"/>
<line y2="21.9501" stroke="#000000" stroke-width="0.432" x1="12.59" class="other" y1="19.0701" stroke-linecap="round" x2="14.75"/>
<line y2="21.9501" stroke="#000000" stroke-width="0.432" x1="14.75" class="other" y1="21.9501" stroke-linecap="round" x2="11.15"/>
<line y2="19.0701" stroke="#000000" stroke-width="0.432" x1="11.15" class="other" y1="21.9501" stroke-linecap="round" x2="12.59"/>
<line y2="18.7866" stroke="#000000" stroke-width="0.432" x1="11.9153" class="other" y1="20.5327" stroke-linecap="round" x2="8.42306"/>
<line y2="21.5901" stroke="#000000" stroke-width="0.72" x1="11.87" class="other" y1="21.5901" stroke-linecap="round" x2="14.03"/>
<line y2="19.7901" stroke="#000000" stroke-width="0.72" x1="14.03" class="other" y1="21.5901" stroke-linecap="round" x2="12.59"/>
<line y2="21.2301" stroke="#000000" stroke-width="0.72" x1="12.59" class="other" y1="19.7901" stroke-linecap="round" x2="11.87"/>
<line y2="21.2301" stroke="#000000" stroke-width="0.72" x1="11.87" class="other" y1="21.2301" stroke-linecap="round" x2="12.95"/>
<line y2="20.5101" stroke="#000000" stroke-width="0.72" x1="12.95" class="other" y1="21.2301" stroke-linecap="round" x2="12.59"/>
<rect stroke="none" stroke-width="0" y="7.55002" x="6.82999" class="other" width="2.16" height="14.4001" stroke-linecap="round" fill="#000000"/>
<line y2="14.75" stroke="#787878" stroke-width="0.699999" x1="0.349999" class="pin" y1="14.75" id="connector0pin" stroke-linecap="round" connectorname="B" x2="7.54999"/>
<g stroke="none" stroke-width="0" y="14.75" x="0.349999" class="terminal" width="0.000283465" height="0.000283466" id="connector0terminal" fill="none"/>
<text stroke="none" stroke-width="0" text-anchor="middle" font-size="2.5" y="13.7001" x="3.94999" class="text" font-family="'Droid Sans'" fill="#8c8c8c">1</text>
<line y2="21.9501" stroke="#787878" stroke-width="0.699999" x1="14.75" class="pin" y1="29.1502" id="connector2pin" stroke-linecap="round" connectorname="E" x2="14.75"/>
<g stroke="none" stroke-width="0" y="29.1502" x="14.75" class="terminal" width="0.000283465" height="0.000283466" id="connector2terminal" fill="none"/>
<g transform="matrix(1, 0, 0, 1, 13.7, 25.5501)">
<g>
<g transform="rotate(270)">
<g>
<text stroke="none" stroke-width="0" text-anchor="middle" font-size="2.5" y="0" x="0" class="text" font-family="'Droid Sans'" fill="#8c8c8c">2</text>
</g>
</g>
</g>
</g>
<line y2="7.55002" stroke="#787878" stroke-width="0.699999" x1="14.75" class="pin" y1="0.350001" id="connector1pin" stroke-linecap="round" connectorname="C" x2="14.75"/>
<g stroke="none" stroke-width="0" y="0.350001" x="14.75" class="terminal" width="0.000283465" height="0.000283466" id="connector1terminal" fill="none"/>
<g transform="matrix(1, 0, 0, 1, 13.7, 3.95001)">
<g>
<g transform="rotate(270)">
<g>
<text stroke="none" stroke-width="0" text-anchor="middle" font-size="2.5" y="0" x="0" class="text" font-family="'Droid Sans'" fill="#8c8c8c">3</text>
</g>
</g>
</g>
</g>
</g>
</g></g><g partID='83970'><g transform='translate(349.065,99.0217)' ><g id="schematic">
<line y2="10.43" stroke="#000000" stroke-width="0.432" x1="14.75" class="other" y1="7.55002" stroke-linecap="round" x2="8.98999"/>
<line y2="21.9501" stroke="#000000" stroke-width="0.432" x1="12.59" class="other" y1="19.0701" stroke-linecap="round" x2="14.75"/>
<line y2="21.9501" stroke="#000000" stroke-width="0.432" x1="14.75" class="other" y1="21.9501" stroke-linecap="round" x2="11.15"/>
<line y2="19.0701" stroke="#000000" stroke-width="0.432" x1="11.15" class="other" y1="21.9501" stroke-linecap="round" x2="12.59"/>
<line y2="18.7866" stroke="#000000" stroke-width="0.432" x1="11.9153" class="other" y1="20.5327" stroke-linecap="round" x2="8.42306"/>
<line y2="21.5901" stroke="#000000" stroke-width="0.72" x1="11.87" class="other" y1="21.5901" stroke-linecap="round" x2="14.03"/>
<line y2="19.7901" stroke="#000000" stroke-width="0.72" x1="14.03" class="other" y1="21.5901" stroke-linecap="round" x2="12.59"/>
<line y2="21.2301" stroke="#000000" stroke-width="0.72" x1="12.59" class="other" y1="19.7901" stroke-linecap="round" x2="11.87"/>
<line y2="21.2301" stroke="#000000" stroke-width="0.72" x1="11.87" class="other" y1="21.2301" stroke-linecap="round" x2="12.95"/>
<line y2="20.5101" stroke="#000000" stroke-width="0.72" x1="12.95" class="other" y1="21.2301" stroke-linecap="round" x2="12.59"/>
<rect stroke="none" stroke-width="0" y="7.55002" x="6.82999" class="other" width="2.16" height="14.4001" stroke-linecap="round" fill="#000000"/>
<line y2="14.75" stroke="#787878" stroke-width="0.699999" x1="0.349999" class="pin" y1="14.75" id="connector0pin" stroke-linecap="round" connectorname="B" x2="7.54999"/>
<g stroke="none" stroke-width="0" y="14.75" x="0.349999" class="terminal" width="0.000283465" height="0.000283466" id="connector0terminal" fill="none"/>
<text stroke="none" stroke-width="0" text-anchor="middle" font-size="2.5" y="13.7001" x="3.94999" class="text" font-family="'Droid Sans'" fill="#8c8c8c">1</text>
<line y2="21.9501" stroke="#787878" stroke-width="0.699999" x1="14.75" class="pin" y1="29.1502" id="connector2pin" stroke-linecap="round" connectorname="E" x2="14.75"/>
<g stroke="none" stroke-width="0" y="29.1502" x="14.75" class="terminal" width="0.000283465" height="0.000283466" id="connector2terminal" fill="none"/>
<g transform="matrix(1, 0, 0, 1, 13.7, 25.5501)">
<g>
<g transform="rotate(270)">
<g>
<text stroke="none" stroke-width="0" text-anchor="middle" font-size="2.5" y="0" x="0" class="text" font-family="'Droid Sans'" fill="#8c8c8c">2</text>
</g>
</g>
</g>
</g>
<line y2="7.55002" stroke="#787878" stroke-width="0.699999" x1="14.75" class="pin" y1="0.350001" id="connector1pin" stroke-linecap="round" connectorname="C" x2="14.75"/>
<g stroke="none" stroke-width="0" y="0.350001" x="14.75" class="terminal" width="0.000283465" height="0.000283466" id="connector1terminal" fill="none"/>
<g transform="matrix(1, 0, 0, 1, 13.7, 3.95001)">
<g>
<g transform="rotate(270)">
<g>
<text stroke="none" stroke-width="0" text-anchor="middle" font-size="2.5" y="0" x="0" class="text" font-family="'Droid Sans'" fill="#8c8c8c">3</text>
</g>
</g>
</g>
</g>
</g>
</g></g><g partID='57730'><g transform='translate(295.919,193.322)' ><g transform='matrix(0,-1,1,0,0,0)'  ><g xmlns="http://www.w3.org/2000/svg" id="schematic">
<line y2="0.216" stroke="#000000" stroke-width="0.432002" x1="7.55002" xmlns="http://www.w3.org/2000/svg" class="other" y1="3.096" stroke-linecap="round" x2="8.63003"/>
<line y2="5.976" stroke="#000000" stroke-width="0.432002" x1="8.63003" xmlns="http://www.w3.org/2000/svg" class="other" y1="0.216" stroke-linecap="round" x2="10.43"/>
<line y2="0.216" stroke="#000000" stroke-width="0.432002" x1="10.43" xmlns="http://www.w3.org/2000/svg" class="other" y1="5.976" stroke-linecap="round" x2="12.23"/>
<line y2="5.976" stroke="#000000" stroke-width="0.432002" x1="12.23" xmlns="http://www.w3.org/2000/svg" class="other" y1="0.216" stroke-linecap="round" x2="14.03"/>
<line y2="0.216" stroke="#000000" stroke-width="0.432002" x1="14.03" xmlns="http://www.w3.org/2000/svg" class="other" y1="5.976" stroke-linecap="round" x2="15.8301"/>
<line y2="5.976" stroke="#000000" stroke-width="0.432002" x1="15.8301" xmlns="http://www.w3.org/2000/svg" class="other" y1="0.216" stroke-linecap="round" x2="17.6301"/>
<line y2="0.216" stroke="#000000" stroke-width="0.432002" x1="17.6301" xmlns="http://www.w3.org/2000/svg" class="other" y1="5.976" stroke-linecap="round" x2="19.4301"/>
<line y2="5.976" stroke="#000000" stroke-width="0.432002" x1="19.4301" xmlns="http://www.w3.org/2000/svg" class="other" y1="0.216" stroke-linecap="round" x2="21.2301"/>
<line y2="3.096" stroke="#000000" stroke-width="0.432002" x1="21.2301" xmlns="http://www.w3.org/2000/svg" class="other" y1="5.976" stroke-linecap="round" x2="21.9501"/>
<line y2="3.096" stroke="#787878" stroke-width="0.700001" x1="29.1502" xmlns="http://www.w3.org/2000/svg" class="pin" y1="3.096" id="connector1pin" stroke-linecap="round" connectorname="2" x2="21.9501"/>
<g stroke="none" stroke-width="0" y="3.096" x="29.1502" xmlns="http://www.w3.org/2000/svg" class="terminal" width="0.000283466" height="0.000283465" id="connector1terminal" fill="none"/>
<text stroke="none" stroke-width="0" text-anchor="middle" font-size="2.50001" y="2.046" x="25.5501" xmlns="http://www.w3.org/2000/svg" class="text" font-family="'Droid Sans'" fill="#8c8c8c">2</text>
<line y2="3.096" stroke="#787878" stroke-width="0.700001" x1="0.350001" xmlns="http://www.w3.org/2000/svg" class="pin" y1="3.096" id="connector0pin" stroke-linecap="round" connectorname="1" x2="7.55002"/>
<g stroke="none" stroke-width="0" y="3.096" x="0.350001" xmlns="http://www.w3.org/2000/svg" class="terminal" width="0.000283466" height="0.000283465" id="connector0terminal" fill="none"/>
<text stroke="none" stroke-width="0" text-anchor="middle" font-size="2.50001" y="2.046" x="3.95001" xmlns="http://www.w3.org/2000/svg" class="text" font-family="'Droid Sans'" fill="#8c8c8c">1</text>
</g>
</g></g></g><g partID='57760'><g transform='translate(327.465,96.2759)' ><g transform='matrix(1,0,0,1,0,0)'  ><g xmlns="http://www.w3.org/2000/svg" id="schematic">
<line y2="0.216" stroke="#000000" stroke-width="0.432002" x1="7.55002" xmlns="http://www.w3.org/2000/svg" class="other" y1="3.096" stroke-linecap="round" x2="8.63003"/>
<line y2="5.976" stroke="#000000" stroke-width="0.432002" x1="8.63003" xmlns="http://www.w3.org/2000/svg" class="other" y1="0.216" stroke-linecap="round" x2="10.43"/>
<line y2="0.216" stroke="#000000" stroke-width="0.432002" x1="10.43" xmlns="http://www.w3.org/2000/svg" class="other" y1="5.976" stroke-linecap="round" x2="12.23"/>
<line y2="5.976" stroke="#000000" stroke-width="0.432002" x1="12.23" xmlns="http://www.w3.org/2000/svg" class="other" y1="0.216" stroke-linecap="round" x2="14.03"/>
<line y2="0.216" stroke="#000000" stroke-width="0.432002" x1="14.03" xmlns="http://www.w3.org/2000/svg" class="other" y1="5.976" stroke-linecap="round" x2="15.8301"/>
<line y2="5.976" stroke="#000000" stroke-width="0.432002" x1="15.8301" xmlns="http://www.w3.org/2000/svg" class="other" y1="0.216" stroke-linecap="round" x2="17.6301"/>
<line y2="0.216" stroke="#000000" stroke-width="0.432002" x1="17.6301" xmlns="http://www.w3.org/2000/svg" class="other" y1="5.976" stroke-linecap="round" x2="19.4301"/>
<line y2="5.976" stroke="#000000" stroke-width="0.432002" x1="19.4301" xmlns="http://www.w3.org/2000/svg" class="other" y1="0.216" stroke-linecap="round" x2="21.2301"/>
<line y2="3.096" stroke="#000000" stroke-width="0.432002" x1="21.2301" xmlns="http://www.w3.org/2000/svg" class="other" y1="5.976" stroke-linecap="round" x2="21.9501"/>
<line y2="3.096" stroke="#787878" stroke-width="0.700001" x1="29.1502" xmlns="http://www.w3.org/2000/svg" class="pin" y1="3.096" id="connector1pin" stroke-linecap="round" connectorname="2" x2="21.9501"/>
<g stroke="none" stroke-width="0" y="3.096" x="29.1502" xmlns="http://www.w3.org/2000/svg" class="terminal" width="0.000283466" height="0.000283465" id="connector1terminal" fill="none"/>
<text stroke="none" stroke-width="0" text-anchor="middle" font-size="2.50001" y="2.046" x="25.5501" xmlns="http://www.w3.org/2000/svg" class="text" font-family="'Droid Sans'" fill="#8c8c8c">2</text>
<line y2="3.096" stroke="#787878" stroke-width="0.700001" x1="0.350001" xmlns="http://www.w3.org/2000/svg" class="pin" y1="3.096" id="connector0pin" stroke-linecap="round" connectorname="1" x2="7.55002"/>
<g stroke="none" stroke-width="0" y="3.096" x="0.350001" xmlns="http://www.w3.org/2000/svg" class="terminal" width="0.000283466" height="0.000283465" id="connector0terminal" fill="none"/>
<text stroke="none" stroke-width="0" text-anchor="middle" font-size="2.50001" y="2.046" x="3.95001" xmlns="http://www.w3.org/2000/svg" class="text" font-family="'Droid Sans'" fill="#8c8c8c">1</text>
</g>
</g></g></g><g partID='854516140'><g transform='translate(140.615,128.172)' ><g id="schematic">
<rect stroke="#000000" stroke-width="0.9" y="14.85" x="14.85" class="interior rect" width="56.7" height="128.7" stroke-linecap="round" fill="#FFFFFF"/>
<line y2="28.8" stroke="none" stroke-width="0" x1="71.6499" class="pin" y1="28.8" stroke-linecap="round" id="connector45pin" x2="86.0499" fill="none"/>
<g stroke="none" stroke-width="0" y="28.4499" x="86.0499" class="terminal" width="0.699999" height="0.699999" id="connector45terminal" fill="none"/>
<line y2="28.8" stroke="#787878" stroke-width="0.699999" x1="71.6499" class="pin" y1="28.8" stroke-linecap="round" id="connector57pin" x2="86.0499" fill="none"/>
<text stroke="none" stroke-width="0" text-anchor="end" font-size="3.49999" y="29.4999" x="70.2499" class="text" font-family="'Droid Sans'" fill="#8c8c8c">D13/SCK</text>
<rect stroke="none" stroke-width="0" y="28.4499" x="86.0499" class="terminal" width="0.699999" height="0.699999" id="connector57terminal" fill="none"/>
<line y2="36" stroke="none" stroke-width="0" x1="71.6499" class="pin" y1="36" stroke-linecap="round" id="connector30pin" x2="86.0499" fill="none"/>
<g stroke="none" stroke-width="0" y="35.6499" x="86.0499" class="terminal" width="0.699999" height="0.699999" id="connector30terminal" fill="none"/>
<line y2="36" stroke="#787878" stroke-width="0.699999" x1="71.6499" class="pin" y1="36" stroke-linecap="round" id="connector55pin" x2="86.0499" fill="none"/>
<text stroke="none" stroke-width="0" text-anchor="end" font-size="3.49999" y="36.6999" x="70.2499" class="text" font-family="'Droid Sans'" fill="#8c8c8c">D12/MISO</text>
<rect stroke="none" stroke-width="0" y="35.6499" x="86.0499" class="terminal" width="0.699999" height="0.699999" id="connector55terminal" fill="none"/>
<line y2="43.2" stroke="none" stroke-width="0" x1="71.6499" class="pin" y1="43.2" stroke-linecap="round" id="connector29pin" x2="86.0499" fill="none"/>
<g stroke="none" stroke-width="0" y="42.8499" x="86.0499" class="terminal" width="0.699999" height="0.699999" id="connector29terminal" fill="none"/>
<line y2="43.2" stroke="#787878" stroke-width="0.699999" x1="71.6499" class="pin" y1="43.2" stroke-linecap="round" id="connector58pin" x2="86.0499" fill="none"/>
<text stroke="none" stroke-width="0" text-anchor="end" font-size="3.49999" y="43.8999" x="70.2499" class="text" font-family="'Droid Sans'" fill="#8c8c8c">D11/MOSI</text>
<rect stroke="none" stroke-width="0" y="42.8499" x="86.0499" class="terminal" width="0.699999" height="0.699999" id="connector58terminal" fill="none"/>
<line y2="50.4" stroke="#787878" stroke-width="0.699999" x1="71.6499" class="pin" y1="50.4" stroke-linecap="round" id="connector28pin" x2="86.0499" fill="none"/>
<text stroke="none" stroke-width="0" text-anchor="end" font-size="3.49999" y="51.0999" x="70.2499" class="text" font-family="'Droid Sans'" fill="#8c8c8c">D10</text>
<g stroke="none" stroke-width="0" y="50.0499" x="86.0499" class="terminal" width="0.699999" height="0.699999" id="connector28terminal" fill="none"/>
<line y2="57.6" stroke="#787878" stroke-width="0.699999" x1="71.6499" class="pin" y1="57.6" stroke-linecap="round" id="connector27pin" x2="86.0499" fill="none"/>
<text stroke="none" stroke-width="0" text-anchor="end" font-size="3.49999" y="58.2999" x="70.2499" class="text" font-family="'Droid Sans'" fill="#8c8c8c">D9</text>
<g stroke="none" stroke-width="0" y="57.2499" x="86.0499" class="terminal" width="0.699999" height="0.699999" id="connector27terminal" fill="none"/>
<line y2="64.8" stroke="#787878" stroke-width="0.699999" x1="71.6499" class="pin" y1="64.8" stroke-linecap="round" id="connector26pin" x2="86.0499" fill="none"/>
<text stroke="none" stroke-width="0" text-anchor="end" font-size="3.49999" y="65.4999" x="70.2499" class="text" font-family="'Droid Sans'" fill="#8c8c8c">D8</text>
<g stroke="none" stroke-width="0" y="64.4499" x="86.0499" class="terminal" width="0.699999" height="0.699999" id="connector26terminal" fill="none"/>
<line y2="72" stroke="#787878" stroke-width="0.699999" x1="71.6499" class="pin" y1="72" stroke-linecap="round" id="connector25pin" x2="86.0499" fill="none"/>
<text stroke="none" stroke-width="0" text-anchor="end" font-size="3.49999" y="72.6999" x="70.2499" class="text" font-family="'Droid Sans'" fill="#8c8c8c">D7</text>
<g stroke="none" stroke-width="0" y="71.6499" x="86.0499" class="terminal" width="0.699999" height="0.699999" id="connector25terminal" fill="none"/>
<line y2="79.2" stroke="#787878" stroke-width="0.699999" x1="71.6499" class="pin" y1="79.2" stroke-linecap="round" id="connector24pin" x2="86.0499" fill="none"/>
<text stroke="none" stroke-width="0" text-anchor="end" font-size="3.49999" y="79.8999" x="70.2499" class="text" font-family="'Droid Sans'" fill="#8c8c8c">D6</text>
<g stroke="none" stroke-width="0" y="78.8499" x="86.0499" class="terminal" width="0.699999" height="0.699999" id="connector24terminal" fill="none"/>
<line y2="86.4" stroke="#787878" stroke-width="0.699999" x1="71.6499" class="pin" y1="86.4" stroke-linecap="round" id="connector23pin" x2="86.0499" fill="none"/>
<text stroke="none" stroke-width="0" text-anchor="end" font-size="3.49999" y="87.0999" x="70.2499" class="text" font-family="'Droid Sans'" fill="#8c8c8c">D5</text>
<g stroke="none" stroke-width="0" y="86.0499" x="86.0499" class="terminal" width="0.699999" height="0.699999" id="connector23terminal" fill="none"/>
<line y2="93.6" stroke="#787878" stroke-width="0.699999" x1="71.6499" class="pin" y1="93.6" stroke-linecap="round" id="connector22pin" x2="86.0499" fill="none"/>
<text stroke="none" stroke-width="0" text-anchor="end" font-size="3.49999" y="94.2999" x="70.2499" class="text" font-family="'Droid Sans'" fill="#8c8c8c">D4</text>
<g stroke="none" stroke-width="0" y="93.2499" x="86.0499" class="terminal" width="0.699999" height="0.699999" id="connector22terminal" fill="none"/>
<line y2="100.8" stroke="#787878" stroke-width="0.699999" x1="71.6499" class="pin" y1="100.8" stroke-linecap="round" id="connector21pin" x2="86.0499" fill="none"/>
<text stroke="none" stroke-width="0" text-anchor="end" font-size="3.49999" y="101.5" x="70.2499" class="text" font-family="'Droid Sans'" fill="#8c8c8c">D3</text>
<g stroke="none" stroke-width="0" y="100.45" x="86.0499" class="terminal" width="0.699999" height="0.699999" id="connector21terminal" fill="none"/>
<line y2="108" stroke="#787878" stroke-width="0.699999" x1="71.6499" class="pin" y1="108" stroke-linecap="round" id="connector20pin" x2="86.0499" fill="none"/>
<text stroke="none" stroke-width="0" text-anchor="end" font-size="3.49999" y="108.7" x="70.2499" class="text" font-family="'Droid Sans'" fill="#8c8c8c">D2</text>
<g stroke="none" stroke-width="0" y="107.65" x="86.0499" class="terminal" width="0.699999" height="0.699999" id="connector20terminal" fill="none"/>
<line y2="122.4" stroke="#787878" stroke-width="0.699999" x1="71.6499" class="pin" y1="122.4" stroke-linecap="round" id="connector16pin" x2="86.0499" fill="none"/>
<text stroke="none" stroke-width="0" text-anchor="end" font-size="3.49999" y="123.1" x="70.2499" class="text" font-family="'Droid Sans'" fill="#8c8c8c">D1/TX</text>
<g stroke="none" stroke-width="0" y="122.05" x="86.0499" class="terminal" width="0.699999" height="0.699999" id="connector16terminal" fill="none"/>
<line y2="129.6" stroke="#787878" stroke-width="0.699999" x1="71.6499" class="pin" y1="129.6" stroke-linecap="round" id="connector17pin" x2="86.0499" fill="none"/>
<text stroke="none" stroke-width="0" text-anchor="end" font-size="3.49999" y="130.3" x="70.2499" class="text" font-family="'Droid Sans'" fill="#8c8c8c">D0/RX</text>
<g stroke="none" stroke-width="0" y="129.25" x="86.0499" class="terminal" width="0.699999" height="0.699999" id="connector17terminal" fill="none"/>
<line y2="28.8" stroke="none" stroke-width="0" x1="0.349999" class="pin" y1="28.8" stroke-linecap="round" id="connector33pin" x2="14.75" fill="none"/>
<g stroke="none" stroke-width="0" y="28.4499" x="-0.349999" class="terminal" width="0.699999" height="0.699999" id="connector33terminal" fill="none"/>
<line y2="28.8" stroke="none" stroke-width="0" x1="0.349999" class="pin" y1="28.8" stroke-linecap="round" id="connector18pin" x2="14.75" fill="none"/>
<g stroke="none" stroke-width="0" y="28.4499" x="-0.349999" class="terminal" width="0.699999" height="0.699999" id="connector18terminal" fill="none"/>
<line y2="28.8" stroke="#787878" stroke-width="0.699999" x1="0.349999" class="pin" y1="28.8" stroke-linecap="round" id="connector59pin" x2="14.75" fill="none"/>
<text stroke="none" stroke-width="0" text-anchor="start" font-size="3.49999" y="29.4999" x="16.15" class="text" font-family="'Droid Sans'" fill="#8c8c8c">RESET</text>
<rect stroke="none" stroke-width="0" y="28.4499" x="-0.349999" class="terminal" width="0.699999" height="0.699999" id="connector59terminal" fill="none"/>
<line y2="36" stroke="#787878" stroke-width="0.699999" x1="0.349999" class="pin" y1="36" stroke-linecap="round" id="connector43pin" x2="14.75" fill="none"/>
<text stroke="none" stroke-width="0" text-anchor="start" font-size="3.49999" y="36.6999" x="16.15" class="text" font-family="'Droid Sans'" fill="#8c8c8c">AREF</text>
<g stroke="none" stroke-width="0" y="35.6499" x="-0.349999" class="terminal" width="0.699999" height="0.699999" id="connector43terminal" fill="none"/>
<line y2="50.4" stroke="#787878" stroke-width="0.699999" x1="0.349999" class="pin" y1="50.4" stroke-linecap="round" id="connector42pin" x2="14.75" fill="none"/>
<text stroke="none" stroke-width="0" text-anchor="start" font-size="3.49999" y="51.0999" x="16.15" class="text" font-family="'Droid Sans'" fill="#8c8c8c">A0</text>
<g stroke="none" stroke-width="0" y="50.0499" x="-0.349999" class="terminal" width="0.699999" height="0.699999" id="connector42terminal" fill="none"/>
<line y2="57.6" stroke="#787878" stroke-width="0.699999" x1="0.349999" class="pin" y1="57.6" stroke-linecap="round" id="connector41pin" x2="14.75" fill="none"/>
<text stroke="none" stroke-width="0" text-anchor="start" font-size="3.49999" y="58.2999" x="16.15" class="text" font-family="'Droid Sans'" fill="#8c8c8c">A1</text>
<g stroke="none" stroke-width="0" y="57.2499" x="-0.349999" class="terminal" width="0.699999" height="0.699999" id="connector41terminal" fill="none"/>
<line y2="64.8" stroke="#787878" stroke-width="0.699999" x1="0.349999" class="pin" y1="64.8" stroke-linecap="round" id="connector40pin" x2="14.75" fill="none"/>
<text stroke="none" stroke-width="0" text-anchor="start" font-size="3.49999" y="65.4999" x="16.15" class="text" font-family="'Droid Sans'" fill="#8c8c8c">A2</text>
<g stroke="none" stroke-width="0" y="64.4499" x="-0.349999" class="terminal" width="0.699999" height="0.699999" id="connector40terminal" fill="none"/>
<line y2="72" stroke="#787878" stroke-width="0.699999" x1="0.349999" class="pin" y1="72" stroke-linecap="round" id="connector39pin" x2="14.75" fill="none"/>
<text stroke="none" stroke-width="0" text-anchor="start" font-size="3.49999" y="72.6999" x="16.15" class="text" font-family="'Droid Sans'" fill="#8c8c8c">A3</text>
<g stroke="none" stroke-width="0" y="71.6499" x="-0.349999" class="terminal" width="0.699999" height="0.699999" id="connector39terminal" fill="none"/>
<line y2="79.2" stroke="#787878" stroke-width="0.699999" x1="0.349999" class="pin" y1="79.2" stroke-linecap="round" id="connector38pin" x2="14.75" fill="none"/>
<text stroke="none" stroke-width="0" text-anchor="start" font-size="3.49999" y="79.8999" x="16.15" class="text" font-family="'Droid Sans'" fill="#8c8c8c">A4</text>
<g stroke="none" stroke-width="0" y="78.8499" x="-0.349999" class="terminal" width="0.699999" height="0.699999" id="connector38terminal" fill="none"/>
<line y2="86.4" stroke="#787878" stroke-width="0.699999" x1="0.349999" class="pin" y1="86.4" stroke-linecap="round" id="connector37pin" x2="14.75" fill="none"/>
<text stroke="none" stroke-width="0" text-anchor="start" font-size="3.49999" y="87.0999" x="16.15" class="text" font-family="'Droid Sans'" fill="#8c8c8c">A5</text>
<g stroke="none" stroke-width="0" y="86.0499" x="-0.349999" class="terminal" width="0.699999" height="0.699999" id="connector37terminal" fill="none"/>
<line y2="93.6" stroke="#787878" stroke-width="0.699999" x1="0.349999" class="pin" y1="93.6" stroke-linecap="round" id="connector36pin" x2="14.75" fill="none"/>
<text stroke="none" stroke-width="0" text-anchor="start" font-size="3.49999" y="94.2999" x="16.15" class="text" font-family="'Droid Sans'" fill="#8c8c8c">A6</text>
<g stroke="none" stroke-width="0" y="93.2499" x="-0.349999" class="terminal" width="0.699999" height="0.699999" id="connector36terminal" fill="none"/>
<line y2="100.8" stroke="#787878" stroke-width="0.699999" x1="0.349999" class="pin" y1="100.8" stroke-linecap="round" id="connector35pin" x2="14.75" fill="none"/>
<text stroke="none" stroke-width="0" text-anchor="start" font-size="3.49999" y="101.5" x="16.15" class="text" font-family="'Droid Sans'" fill="#8c8c8c">A7</text>
<g stroke="none" stroke-width="0" y="100.45" x="-0.349999" class="terminal" width="0.699999" height="0.699999" id="connector35terminal" fill="none"/>
<line y2="158.05" stroke="none" stroke-width="0" x1="43.2" class="pin" y1="143.65" stroke-linecap="round" id="connector19pin" x2="43.2" fill="none"/>
<g stroke="none" stroke-width="0" y="158.05" x="42.8499" class="terminal" width="0.699999" height="0.699999" id="connector19terminal" fill="none"/>
<line y2="158.05" stroke="none" stroke-width="0" x1="43.2" class="pin" y1="143.65" stroke-linecap="round" id="connector32pin" x2="43.2" fill="none"/>
<g stroke="none" stroke-width="0" y="158.05" x="42.8499" class="terminal" width="0.699999" height="0.699999" id="connector32terminal" fill="none"/>
<line y2="158.05" stroke="#787878" stroke-width="0.699999" x1="43.2" class="pin" y1="143.65" stroke-linecap="round" id="connector60pin" x2="43.2" fill="none"/>
<g transform="matrix(1, 0, 0, 1, 43.8999, 142.25)">
<g>
<g transform="rotate(270)">
<g>
<text stroke="none" stroke-width="0" text-anchor="start" font-size="3.49999" y="0" x="0" class="text" font-family="'Droid Sans'" fill="#8c8c8c">GND</text>
</g>
</g>
</g>
</g>
<rect stroke="none" stroke-width="0" y="158.05" x="42.8499" class="terminal" width="0.699999" height="0.699999" id="connector60terminal" fill="none"/>
<line y2="14.75" stroke="#787878" stroke-width="0.699999" x1="28.8" class="pin" y1="0.349999" stroke-linecap="round" id="connector31pin" x2="28.8" fill="none"/>
<g transform="matrix(1, 0, 0, 1, 29.4999, 16.15)">
<g>
<g transform="rotate(270)">
<g>
<text stroke="none" stroke-width="0" text-anchor="end" font-size="3.49999" y="0" x="0" class="text" font-family="'Droid Sans'" fill="#8c8c8c">VIN</text>
</g>
</g>
</g>
</g>
<g stroke="none" stroke-width="0" y="-0.349999" x="28.4499" class="terminal" width="0.699999" height="0.699999" id="connector31terminal" fill="none"/>
<line y2="14.75" stroke="none" stroke-width="0" x1="43.2" class="pin" y1="0.349999" stroke-linecap="round" id="connector34pin" x2="43.2" fill="none"/>
<g stroke="none" stroke-width="0" y="-0.349999" x="42.8499" class="terminal" width="0.699999" height="0.699999" id="connector34terminal" fill="none"/>
<line y2="14.75" stroke="#787878" stroke-width="0.699999" x1="43.2" class="pin" y1="0.349999" stroke-linecap="round" id="connector56pin" x2="43.2" fill="none"/>
<g transform="matrix(1, 0, 0, 1, 43.8999, 16.15)">
<g>
<g transform="rotate(270)">
<g>
<text stroke="none" stroke-width="0" text-anchor="end" font-size="3.49999" y="0" x="0" class="text" font-family="'Droid Sans'" fill="#8c8c8c">5V</text>
</g>
</g>
</g>
</g>
<rect stroke="none" stroke-width="0" y="-0.349999" x="42.8499" class="terminal" width="0.699999" height="0.699999" id="connector56terminal" fill="none"/>
<line y2="14.75" stroke="#787878" stroke-width="0.699999" x1="57.6" class="pin" y1="0.349999" stroke-linecap="round" id="connector44pin" x2="57.6" fill="none"/>
<g transform="matrix(1, 0, 0, 1, 58.2999, 16.15)">
<g>
<g transform="rotate(270)">
<g>
<text stroke="none" stroke-width="0" text-anchor="end" font-size="3.49999" y="0" x="0" class="text" font-family="'Droid Sans'" fill="#8c8c8c">3V3</text>
</g>
</g>
</g>
</g>
<g stroke="none" stroke-width="0" y="-0.349999" x="57.2499" class="terminal" width="0.699999" height="0.699999" id="connector44terminal" fill="none"/>
<text stroke="none" stroke-width="0" text-anchor="middle" font-size="4.25001" y="72.8498" x="43.6499" class="text" font-family="'Droid Sans'" id="label" fill="#000000">Arduino</text>
<text stroke="none" stroke-width="0" text-anchor="middle" font-size="4.25001" y="77.3833" x="43.6499" class="text" font-family="'Droid Sans'" id="label" fill="#000000">Nano</text>
<text stroke="none" stroke-width="0" text-anchor="middle" font-size="4.25001" y="81.9167" x="43.6499" class="text" font-family="'Droid Sans'" id="label" fill="#000000">(Rev3.0)</text>
</g>
</g></g><g partID='854484881'><g transform='translate(441.055,52.5757)' ><g transform='matrix(-1,0,0,-1,0,0)'  ><g xmlns="http://www.w3.org/2000/svg" id="schematicText">
 <text xmlns="http://www.w3.org/2000/svg" font-size="4.8" y="5.28" x="0.48" font-family="Droid Sans" id="label" fill="#000000">conector para tira de  5 LED 10W</text>
</g>
</g></g></g><g partID='854484941'><g transform='translate(198.3,45.3685)' ><g xmlns="http://www.w3.org/2000/svg" id="schematicText">
 <text xmlns="http://www.w3.org/2000/svg" font-size="4.8" y="5.28" x="0.48" font-family="Droid Sans" id="label" fill="#000000">Alimentaci&#xf3;n 12V</text>
</g>
</g></g><g partID='854519731'><g transform='translate(405.542,174.976)' ><g transform='matrix(-1,0,0,-1,0,0)'  ><g xmlns="http://www.w3.org/2000/svg" id="schematicText">
 <text xmlns="http://www.w3.org/2000/svg" font-size="4.8" y="5.28" x="0.48" font-family="Droid Sans" id="label" fill="#000000">LED 5mm color Azul</text>
</g>
</g></g></g><g partID='854519771'><g transform='translate(0,81.3685)' ><g xmlns="http://www.w3.org/2000/svg" id="schematicText">
 <text xmlns="http://www.w3.org/2000/svg" font-size="4.8" y="5.28" x="0.48" font-family="Droid Sans" id="label" fill="#000000">Conector Potenciometro 10K</text>
</g>
</g></g><g partID='854509310'><line stroke-linecap='round' stroke='#404040' x1='270.215' y1='63.3721' x2='255.815' y2='63.3721' stroke-width='0.699998' /></g><g partID='854509710'><line stroke-linecap='round' stroke='#404040' x1='327.867' y1='63.2653' x2='320.547' y2='63.4393' stroke-width='0.699998' /></g><g partID='854509510'><line stroke-linecap='round' stroke='#404040' x1='320.547' y1='63.4393' x2='291.815' y2='63.3721' stroke-width='0.699998' /></g><circle  fill="black" cx="320.547" cy="63.4393" r="1.44" stroke-width="0" stroke="none" /><g partID='854509400'><line stroke-linecap='round' stroke='#404040' x1='349.415' y1='63.3721' x2='327.867' y2='63.2653' stroke-width='0.699998' /></g><circle  fill="black" cx="327.867" cy="63.2653" r="1.44" stroke-width="0" stroke="none" /><g partID='854509580'><line stroke-linecap='round' stroke='#404040' x1='320.547' y1='63.4393' x2='320.615' y2='70.5719' stroke-width='0.699998' /></g><g partID='854511560'><line stroke-linecap='round' stroke='#404040' x1='407.018' y1='63.3929' x2='356.615' y2='63.3723' stroke-width='0.699998' /></g><g partID='854509820'><line stroke-linecap='round' stroke='#404040' x1='407.015' y1='77.7721' x2='407.018' y2='63.3925' stroke-width='0.699998' /></g><g partID='854511100'><line stroke-linecap='round' stroke='#404040' x1='385.351' y1='99.4357' x2='392.615' y2='99.3723' stroke-width='0.699998' /></g><circle  fill="black" cx="385.351" cy="99.4357" r="1.44" stroke-width="0" stroke="none" /><g partID='854509930'><line stroke-linecap='round' stroke='#404040' x1='363.815' y1='99.3721' x2='385.351' y2='99.4357' stroke-width='0.699998' /></g><circle  fill="black" cx="363.815" cy="99.3721" r="1.44" stroke-width="0" stroke="none" /><g partID='854511810'><line stroke-linecap='round' stroke='#404040' x1='428.715' y1='99.5017' x2='421.415' y2='99.3721' stroke-width='0.699998' /></g><circle  fill="black" cx="428.715" cy="99.5017" r="1.44" stroke-width="0" stroke="none" /><g partID='854510490'><line stroke-linecap='round' stroke='#404040' x1='464.634' y1='99.2715' x2='435.705' y2='99.4361' stroke-width='0.699998' /></g><g partID='854510310'><line stroke-linecap='round' stroke='#404040' x1='435.705' y1='99.4361' x2='428.715' y2='99.5017' stroke-width='0.699998' /></g><circle  fill="black" cx="435.705" cy="99.4361" r="1.44" stroke-width="0" stroke="none" /><g partID='854510240'><line stroke-linecap='round' stroke='#404040' x1='464.615' y1='106.572' x2='464.634' y2='99.2715' stroke-width='0.699998' /></g><g partID='854510380'><line stroke-linecap='round' stroke='#404040' x1='435.705' y1='99.4361' x2='435.815' y2='106.572' stroke-width='0.699998' /></g><g partID='854511170'><line stroke-linecap='round' stroke='#404040' x1='385.351' y1='99.4357' x2='385.415' y2='106.572' stroke-width='0.699998' /></g><g partID='854511340'><line stroke-linecap='round' stroke='#404040' x1='327.815' y1='99.3721' x2='320.615' y2='99.3721' stroke-width='0.699998' /></g><g partID='854511410'><line stroke-linecap='round' stroke='#404040' x1='363.815' y1='99.3718' x2='356.615' y2='99.3721' stroke-width='0.699998' /></g><circle  fill="black" cx="363.815" cy="99.3718" r="1.44" stroke-width="0" stroke="none" /><g partID='854519660'><line stroke-linecap='round' stroke='#404040' x1='298.964' y1='85.0224' x2='299.015' y2='164.172' stroke-width='0.699998' /></g><g partID='854511630'><line stroke-linecap='round' stroke='#404040' x1='306.215' y1='84.9719' x2='298.964' y2='85.0224' stroke-width='0.699998' /></g><g partID='854511740'><line stroke-linecap='round' stroke='#404040' x1='349.415' y1='113.772' x2='342.215' y2='113.772' stroke-width='0.699998' /></g><g partID='854512070'><line stroke-linecap='round' stroke='#404040' x1='428.715' y1='120.802' x2='371.015' y2='120.972' stroke-width='0.699998' /></g><g partID='854511920'><line stroke-linecap='round' stroke='#404040' x1='428.715' y1='99.5017' x2='428.715' y2='120.801' stroke-width='0.699998' /></g><g partID='854512840'><line stroke-linecap='round' stroke='#404040' x1='363.85' y1='142.624' x2='385.327' y2='142.495' stroke-width='0.699998' /></g><circle  fill="black" cx="363.85" cy="142.624" r="1.44" stroke-width="0" stroke="none" /><g partID='854512580'><line stroke-linecap='round' stroke='#404040' x1='385.327' y1='142.495' x2='435.815' y2='142.495' stroke-width='0.699998' /></g><circle  fill="black" cx="385.327" cy="142.495" r="1.44" stroke-width="0" stroke="none" /><g partID='854512400'><line stroke-linecap='round' stroke='#404040' x1='435.815' y1='142.495' x2='464.634' y2='142.5' stroke-width='0.699998' /></g><circle  fill="black" cx="435.815" cy="142.495" r="1.44" stroke-width="0" stroke="none" /><g partID='854512330'><line stroke-linecap='round' stroke='#404040' x1='464.634' y1='142.5' x2='464.615' y2='135.372' stroke-width='0.699998' /></g><g partID='854512220'><line stroke-linecap='round' stroke='#404040' x1='363.815' y1='128.172' x2='363.85' y2='142.624' stroke-width='0.699998' /></g><g partID='854512470'><line stroke-linecap='round' stroke='#404040' x1='435.815' y1='142.495' x2='435.815' y2='135.372' stroke-width='0.699998' /></g><g partID='854512690'><line stroke-linecap='round' stroke='#404040' x1='385.327' y1='142.495' x2='385.415' y2='135.372' stroke-width='0.699998' /></g><g partID='854514860'><line stroke-linecap='round' stroke='#404040' x1='320.473' y1='286.555' x2='183.815' y2='286.572' stroke-width='0.699998' /></g><circle  fill="black" cx="183.815" cy="286.572" r="1.44" stroke-width="0" stroke="none" /><g partID='854522360'><line stroke-linecap='round' stroke='#404040' x1='320.547' y1='156.887' x2='320.547' y2='178.47' stroke-width='0.699998' /></g><circle  fill="black" cx="320.547" cy="156.887" r="1.44" stroke-width="0" stroke="none" /><g partID='854523590'><line stroke-linecap='round' stroke='#404040' x1='320.547' y1='178.47' x2='320.473' y2='286.555' stroke-width='0.699998' /></g><circle  fill="black" cx="320.547" cy="178.47" r="1.44" stroke-width="0" stroke="none" /><g partID='854514470'><line stroke-linecap='round' stroke='#404040' x1='320.473' y1='142.624' x2='320.547' y2='156.887' stroke-width='0.699998' /></g><g partID='854514240'><line stroke-linecap='round' stroke='#404040' x1='363.85' y1='142.624' x2='320.473' y2='142.624' stroke-width='0.699998' /></g><circle  fill="black" cx="320.473" cy="142.624" r="1.44" stroke-width="0" stroke="none" /><g partID='854516480'><line stroke-linecap='round' stroke='#404040' x1='234.214' y1='128.33' x2='198.215' y2='128.172' stroke-width='0.699998' /></g><g partID='854516410'><line stroke-linecap='round' stroke='#404040' x1='234.215' y1='106.572' x2='234.214' y2='128.33' stroke-width='0.699998' /></g><g partID='854516550'><line stroke-linecap='round' stroke='#404040' x1='320.473' y1='142.624' x2='241.607' y2='142.624' stroke-width='0.699998' /></g><g partID='854516780'><line stroke-linecap='round' stroke='#404040' x1='241.607' y1='142.624' x2='241.415' y2='106.572' stroke-width='0.699998' /></g><g partID='854517610'><line stroke-linecap='round' stroke='#404040' x1='126.266' y1='34.6763' x2='126.266' y2='128.33' stroke-width='0.699998' /></g><g partID='854517460'><line stroke-linecap='round' stroke='#404040' x1='126.266' y1='128.33' x2='169.415' y2='128.172' stroke-width='0.699998' /></g><g partID='854517160'><line stroke-linecap='round' stroke='#404040' x1='327.867' y1='34.6763' x2='126.266' y2='34.6763' stroke-width='0.699998' /></g><g partID='854517010'><line stroke-linecap='round' stroke='#404040' x1='327.867' y1='63.2653' x2='327.867' y2='34.6763' stroke-width='0.699998' /></g><g partID='854518150'><line stroke-linecap='round' stroke='#404040' x1='118.872' y1='63.2653' x2='248.615' y2='63.3721' stroke-width='0.699998' /></g><g partID='854517880'><line stroke-linecap='round' stroke='#404040' x1='183.815' y1='286.572' x2='118.872' y2='286.555' stroke-width='0.699998' /></g><circle  fill="black" cx="183.815" cy="286.572" r="1.44" stroke-width="0" stroke="none" /><g partID='854518420'><line stroke-linecap='round' stroke='#404040' x1='118.872' y1='286.555' x2='118.872' y2='63.2653' stroke-width='0.699998' /></g><g partID='854518760'><line stroke-linecap='round' stroke='#404040' x1='82.8895' y1='178.607' x2='140.615' y2='178.572' stroke-width='0.699998' /></g><g partID='854518690'><line stroke-linecap='round' stroke='#404040' x1='83.0149' y1='92.1721' x2='82.8895' y2='178.607' stroke-width='0.699998' /></g><g partID='854518900'><line stroke-linecap='round' stroke='#404040' x1='75.9887' y1='113.542' x2='183.937' y2='113.542' stroke-width='0.699998' /></g><g partID='854518970'><line stroke-linecap='round' stroke='#404040' x1='183.937' y1='113.542' x2='183.815' y2='128.172' stroke-width='0.699998' /></g><g partID='854518830'><line stroke-linecap='round' stroke='#404040' x1='75.8149' y1='92.1721' x2='75.9887' y2='113.542' stroke-width='0.699998' /></g><g partID='854519350'><line stroke-linecap='round' stroke='#404040' x1='90.2832' y1='286.555' x2='183.815' y2='286.572' stroke-width='0.699998' /></g><circle  fill="black" cx="183.815" cy="286.572" r="1.44" stroke-width="0" stroke="none" /><g partID='854519040'><line stroke-linecap='round' stroke='#404040' x1='90.2149' y1='92.1721' x2='90.2832' y2='286.555' stroke-width='0.699998' /></g><g partID='854519790'><line stroke-linecap='round' stroke='#404040' x1='349.415' y1='178.572' x2='349.415' y2='178.572' stroke-width='0.699998' /></g><g partID='854522110'><line stroke-linecap='round' stroke='#404040' x1='255.797' y1='156.887' x2='255.815' y2='106.572' stroke-width='0.699998' /></g><circle  fill="black" cx="255.797" cy="156.887" r="1.44" stroke-width="0" stroke="none" /><g partID='854522040'><line stroke-linecap='round' stroke='#404040' x1='255.815' y1='156.972' x2='255.797' y2='156.887' stroke-width='0.699998' /></g><g partID='854522180'><line stroke-linecap='round' stroke='#404040' x1='255.797' y1='156.887' x2='263.015' y2='156.972' stroke-width='0.699998' /></g><g partID='854522290'><line stroke-linecap='round' stroke='#404040' x1='255.815' y1='185.772' x2='227.015' y2='185.772' stroke-width='0.699998' /></g><g partID='854522670'><line stroke-linecap='round' stroke='#404040' x1='320.547' y1='156.887' x2='291.815' y2='156.972' stroke-width='0.699998' /></g><g partID='854523170'><line stroke-linecap='round' stroke='#404040' x1='248.682' y1='192.938' x2='227.015' y2='192.972' stroke-width='0.699998' /></g><g partID='854523100'><line stroke-linecap='round' stroke='#404040' x1='248.615' y1='106.572' x2='248.682' y2='192.938' stroke-width='0.699998' /></g><g partID='854523310'><line stroke-linecap='round' stroke='#404040' x1='262.913' y1='135.304' x2='263.015' y2='106.572' stroke-width='0.699998' /></g><g partID='854523380'><line stroke-linecap='round' stroke='#404040' x1='234.214' y1='135.304' x2='262.913' y2='135.304' stroke-width='0.699998' /></g><g partID='854523450'><line stroke-linecap='round' stroke='#404040' x1='234.214' y1='200.291' x2='234.214' y2='135.304' stroke-width='0.699998' /></g><g partID='854523240'><line stroke-linecap='round' stroke='#404040' x1='227.015' y1='200.172' x2='234.214' y2='200.291' stroke-width='0.699998' /></g><g partID='854523520'><line stroke-linecap='round' stroke='#404040' x1='227.015' y1='207.372' x2='349.415' y2='207.372' stroke-width='0.699998' /></g><g partID='854523940'><line stroke-linecap='round' stroke='#404040' x1='320.547' y1='178.47' x2='342.215' y2='178.572' stroke-width='0.699998' /></g><g partID='854524330'><line stroke-linecap='round' stroke='#404040' x1='299.015' y1='192.972' x2='298.964' y2='221.874' stroke-width='0.699998' /></g><g partID='854524400'><line stroke-linecap='round' stroke='#404040' x1='298.964' y1='221.874' x2='227.015' y2='221.772' stroke-width='0.699998' /></g><g partID='854524540'><line stroke-linecap='round' stroke='#404040' x1='306.316' y1='113.721' x2='306.316' y2='228.989' stroke-width='0.699998' /></g><g partID='854524470'><line stroke-linecap='round' stroke='#404040' x1='313.415' y1='113.772' x2='306.316' y2='113.721' stroke-width='0.699998' /></g><g partID='854524610'><line stroke-linecap='round' stroke='#404040' x1='306.316' y1='228.989' x2='227.015' y2='228.972' stroke-width='0.699998' /></g><g partID='57600' id='partLabel'><g transform='translate(268.23,163.042)' ><g font-size='5' font-style='normal' font-weight='normal' fill='#000000' font-family="'DroidSans'" id='schematicLabel' fill-opacity='1' stroke='none' ><text x='0' y='3.75'>R1</text><text x='0' y='8.75'>1k&#x3a9;</text></g></g></g><g partID='57630' id='partLabel'><g transform='translate(261.201,167.181)' ><g font-size='5' font-style='normal' font-weight='normal' fill='#000000' font-family="'DroidSans'" id='schematicLabel' fill-opacity='1' stroke='none' ><text x='0' y='3.75'>R2</text><text x='0' y='8.75'>2.2k&#x3a9;</text></g></g></g><g partID='57730' id='partLabel'><g transform='translate(279.127,181.124)' ><g font-size='5' font-style='normal' font-weight='normal' fill='#000000' font-family="'DroidSans'" id='schematicLabel' fill-opacity='1' stroke='none' ><text x='0' y='3.75'>10k&#x3a9;</text><text x='0' y='8.75'>R3</text></g></g></g><g partID='854492910' id='partLabel'><g transform='translate(349.691,68.18)' ><g font-size='5' font-style='normal' font-weight='normal' fill='#000000' font-family="'DroidSans'" id='schematicLabel' fill-opacity='1' stroke='none' ><text x='0' y='3.75'>J4</text></g></g></g><g partID='854493550' id='partLabel'><g transform='translate(249.988,67.3415)' ><g font-size='5' font-style='normal' font-weight='normal' fill='#000000' font-family="'DroidSans'" id='schematicLabel' fill-opacity='1' stroke='none' ><text x='0' y='3.75'>J5</text></g></g></g><g partID='854492930' id='partLabel'><g transform='translate(270.355,46.6897)' ><g font-size='5' font-style='normal' font-weight='normal' fill='#000000' font-family="'DroidSans'" id='schematicLabel' fill-opacity='1' stroke='none' ><text x='0' y='3.75'>D1</text><text x='0' y='8.75'>1N4001</text></g></g></g><g partID='73870' id='partLabel'><g transform='translate(411.172,75.3169)' ><g font-size='5' font-style='normal' font-weight='normal' fill='#000000' font-family="'DroidSans'" id='schematicLabel' fill-opacity='1' stroke='none' ><text x='0' y='3.75'>Q1</text><text x='0' y='8.75'>IRF530</text></g></g></g><g partID='83970' id='partLabel'><g transform='translate(346.269,120.851)' ><g transform='matrix(1,0,0,1,0,0)'  ><g font-size='5' font-style='normal' font-weight='normal' fill='#000000' font-family="'DroidSans'" id='schematicLabel' fill-opacity='1' stroke='none' ><text x='0' y='3.75'>Q3</text><text x='0' y='8.75'>BC547</text></g></g></g></g><g partID='854493590' id='partLabel'><g transform='translate(66.6069,77.7931)' ><g transform='matrix(0,-1,1,0,0,0)'  ><g font-size='5' font-style='normal' font-weight='normal' fill='#000000' font-family="'DroidSans'" id='schematicLabel' fill-opacity='1' stroke='none' ><text x='0' y='3.75'>J3</text></g></g></g></g><g partID='854516140' id='partLabel'><g transform='translate(162.443,238.9)' ><g font-size='5' font-style='normal' font-weight='normal' fill='#000000' font-family="'DroidSans'" id='schematicLabel' fill-opacity='1' stroke='none' ><text x='0' y='3.75'>Componente5</text></g></g></g><g partID='854495020' id='partLabel'><g transform='translate(333.007,164.193)' ><g transform='matrix(0,-1,1,0,0,0)'  ><g font-size='5' font-style='normal' font-weight='normal' fill='#000000' font-family="'DroidSans'" id='schematicLabel' fill-opacity='1' stroke='none' ><text x='0' y='3.75'>J2</text></g></g></g></g><g partID='854495380' id='partLabel'><g transform='translate(217.807,92.1931)' ><g transform='matrix(0,-1,1,0,0,0)'  ><g font-size='5' font-style='normal' font-weight='normal' fill='#000000' font-family="'DroidSans'" id='schematicLabel' fill-opacity='1' stroke='none' ><text x='0' y='3.75'>J1</text></g></g></g></g><g partID='854499700' id='partLabel'><g transform='translate(471.712,114.632)' ><g transform='matrix(1,0,0,1,0,0)'  ><g font-size='5' font-style='normal' font-weight='normal' fill='#000000' font-family="'DroidSans'" id='schematicLabel' fill-opacity='1' stroke='none' ><text x='0' y='3.75'>R9</text><text x='0' y='8.75'>1.5&#x3a9;</text></g></g></g></g><g partID='854496360' id='partLabel'><g transform='translate(360.803,184.287)' ><g transform='matrix(1,0,0,1,0,0)'  ><g font-size='5' font-style='normal' font-weight='normal' fill='#000000' font-family="'DroidSans'" id='schematicLabel' fill-opacity='1' stroke='none' ><text x='0' y='3.75'>R8</text><text x='0' y='8.75'>330k&#x3a9;</text></g></g></g></g><g partID='854397510' id='partLabel'><g transform='translate(320.346,118.378)' ><g transform='matrix(1,0,0,1,0,0)'  ><g font-size='5' font-style='normal' font-weight='normal' fill='#000000' font-family="'DroidSans'" id='schematicLabel' fill-opacity='1' stroke='none' ><text x='0' y='3.75'>R7</text><text x='0' y='8.75'>10k&#x3a9;</text></g></g></g></g><g partID='854499720' id='partLabel'><g transform='translate(442.507,114.296)' ><g transform='matrix(1,0,0,1,0,0)'  ><g font-size='5' font-style='normal' font-weight='normal' fill='#000000' font-family="'DroidSans'" id='schematicLabel' fill-opacity='1' stroke='none' ><text x='0' y='3.75'>R10</text><text x='0' y='8.75'>2.2k&#x3a9;</text></g></g></g></g><g partID='854493570' id='partLabel'><g transform='translate(291.224,70.3428)' ><g font-size='5' font-style='normal' font-weight='normal' fill='#000000' font-family="'DroidSans'" id='schematicLabel' fill-opacity='1' stroke='none' ><text x='0' y='3.75'>Q4</text><text x='0' y='8.75'>BC547</text></g></g></g><g partID='84930' id='partLabel'><g transform='translate(391.984,109.489)' ><g font-size='5' font-style='normal' font-weight='normal' fill='#000000' font-family="'DroidSans'" id='schematicLabel' fill-opacity='1' stroke='none' ><text x='0' y='3.75'>Q2</text><text x='0' y='8.75'>BC547</text></g></g></g><g partID='57760' id='partLabel'><g transform='translate(334.767,83.1751)' ><g font-size='5' font-style='normal' font-weight='normal' fill='#000000' font-family="'DroidSans'" id='schematicLabel' fill-opacity='1' stroke='none' ><text x='0' y='3.75'>R4</text><text x='0' y='8.75'>4.7k&#x3a9;</text></g></g></g></svg>